Lab1/codes/CPU.vcd
$date
    Dec  5, 2022  04:34:39
$end
$version
    TOOL:	ncsim	15.20-s084
$end
$timescale
    1 ns
$end

$scope module TestBench $end
$var reg       1 !    Clk  $end
$var reg       1 "    Start  $end
$var reg       1 #    Reset  $end
$var integer  32 $    i  $end
$var integer  32 %    outfile  $end
$var integer  32 &    counter  $end
$var integer  32 '    stall  $end
$var integer  32 (    flush  $end
$var parameter 32 )    num_cycles  $end

$scope module CPU $end
$var wire      1 *    clk_i  $end
$var wire      1 +    rst_i  $end
$var wire      1 ,    start_i  $end
$var wire     32 -    IF_pc_o [31:0] $end
$var wire     32 .    IF_pc_i [31:0] $end
$var wire     32 /    IF_instr_mem_o [31:0] $end
$var wire      1 0    ID_RegWrite_toRegIDEX  $end
$var wire      1 1    ID_MemtoReg_toRegIDEX  $end
$var wire      1 2    ID_MemRead_toRegIDEX  $end
$var wire      1 3    ID_MemWrite_toRegIDEX  $end
$var wire      2 4    ID_ALUOp_toRegIDEX [1:0] $end
$var wire      1 5    ID_ALUSrc_toRegIDEX  $end
$var wire     32 6    ID_instr_fromIF [31:0] $end
$var wire     32 7    ID_Rd1_toRegIDEX [31:0] $end
$var wire     32 8    ID_Rd2_toRegIDEX [31:0] $end
$var wire     32 9    ID_ImmGen_toRegIDEX [31:0] $end
$var wire      1 :    EX_RegWrite_toRegEXMEM  $end
$var wire      1 ;    EX_MemtoReg_toRegEXMEM  $end
$var wire      1 <    EX_MemRead_toRegEXMEM  $end
$var wire      1 =    EX_MemWrite_toRegEXMEM  $end
$var wire      2 >    EX_ALUOp [1:0] $end
$var wire      1 ?    EX_ALUSrc  $end
$var wire     32 @    EX_Rd1 [31:0] $end
$var wire     32 A    EX_Rd2 [31:0] $end
$var wire     32 B    EX_Imm [31:0] $end
$var wire     10 C    EX_ALUfunct [9:0] $end
$var wire     32 D    EX_MUXtoALU [31:0] $end
$var wire     32 E    EX_ALU_toRegEXMEM [31:0] $end
$var wire      3 F    EX_ALUCtrl_o [2:0] $end
$var wire      5 G    EX_RegDest [4:0] $end
$var wire      1 H    MEM_RegWrite_toRegMEMWB  $end
$var wire      1 I    MEM_MemtoReg_toRegMEMWB  $end
$var wire      1 J    MEM_MemRead  $end
$var wire      1 K    MEM_MemWrite  $end
$var wire     32 L    MEM_MemAddr_or_ALUResult [31:0] $end
$var wire     32 M    MEM_MemWriteData [31:0] $end
$var wire     32 N    MEM_MemReadData [31:0] $end
$var wire      5 O    MEM_RegDest [4:0] $end
$var wire      1 P    WB_RegWrite  $end
$var wire      1 Q    WB_MemtoReg  $end
$var wire     32 R    WB_ALUResult [31:0] $end
$var wire     32 S    WB_MemReadData [31:0] $end
$var wire     32 T    WB_RegWriteData [31:0] $end
$var wire      5 U    WB_RegDest [4:0] $end
$var wire      5 V    EX_Rs1_to_forwardUnit [4:0] $end
$var wire      5 W    EX_Rs2_to_forwardUnit [4:0] $end
$var wire      2 X    forwardA [1:0] $end
$var wire      2 Y    forwardB [1:0] $end
$var wire     32 Z    EX_MUX_to_Rd1 [31:0] $end
$var wire     32 [    EX_Rd2_MUX_to_MUX [31:0] $end
$var wire      1 \    PCWrite  $end
$var wire      1 ]    stall  $end
$var wire      1 ^    NoOp  $end
$var wire      1 _    Branching  $end
$var wire     32 `    IF_pc_mux_i [31:0] $end
$var wire     32 a    ID_pc [31:0] $end
$var reg       1 b    Flush  $end

$scope module PC_Branching $end
$var wire     32 .    data1_i [31:0] $end
$var wire     32 c    data2_i [31:0] $end
$var wire      1 d    select_i  $end
$var wire     32 `    data_o [31:0] $end
$upscope $end


$scope module Hazard_Detection $end
$var wire      1 <    EX_MemRead_i  $end
$var wire      5 G    EX_RegDest_i [4:0] $end
$var wire      5 e    ID_Rs1_i [4:0] $end
$var wire      5 f    ID_Rs2_i [4:0] $end
$var wire      1 ^    NoOp_o  $end
$var wire      1 ]    Stall_o  $end
$var wire      1 \    PCWrite_o  $end
$var reg       1 g    NoOp  $end
$var reg       1 h    stall  $end
$var reg       1 i    PCWrite  $end
$upscope $end


$scope module forwarding_unit $end
$var wire      5 V    EX_Rs1_i [4:0] $end
$var wire      5 W    EX_Rs2_i [4:0] $end
$var wire      5 U    WB_RegDest_i [4:0] $end
$var wire      1 P    WB_RegWrite_i  $end
$var wire      5 O    MEM_Rd_i [4:0] $end
$var wire      1 H    MEM_RegWrite_i  $end
$var wire      2 X    forwardA_o [1:0] $end
$var wire      2 Y    forwardB_o [1:0] $end
$var reg       2 j    forwardA [1:0] $end
$var reg       2 k    forwardB [1:0] $end
$upscope $end


$scope module EX_Rd1_to_ALU $end
$var wire     32 @    data00_i [31:0] $end
$var wire     32 T    data01_i [31:0] $end
$var wire     32 L    data10_i [31:0] $end
$var wire     32 l    data11_i [31:0] $end
$var wire      2 X    select_i [1:0] $end
$var wire     32 Z    data_o [31:0] $end
$var reg      32 m    data [31:0] $end
$upscope $end


$scope module EX_Rd2_to_ALU $end
$var wire     32 A    data00_i [31:0] $end
$var wire     32 T    data01_i [31:0] $end
$var wire     32 L    data10_i [31:0] $end
$var wire     32 n    data11_i [31:0] $end
$var wire      2 Y    select_i [1:0] $end
$var wire     32 [    data_o [31:0] $end
$var reg      32 o    data [31:0] $end
$upscope $end


$scope module PC_Adder $end
$var wire     32 -    data1_in [31:0] $end
$var wire     32 p    data2_in [31:0] $end
$var wire     32 .    data_o [31:0] $end
$upscope $end


$scope module ALUCtrl $end
$var wire     10 C    funct_i [9:0] $end
$var wire      2 >    ALUOp_i [1:0] $end
$var wire      3 F    ALUCtrl_o [2:0] $end
$var parameter 32 q    R_TYPE  $end
$var parameter 32 r    I_TYPE  $end
$var parameter 10 s    AND_FUNC  $end
$var parameter 10 t    XOR_FUNC  $end
$var parameter 10 u    SLL_FUNC  $end
$var parameter 10 v    ADD_FUNC  $end
$var parameter 10 w    SUB_FUNC  $end
$var parameter 10 x    MUL_FUNC  $end
$var parameter  3 y    ADDI_FUNC  $end
$var parameter  3 z    SRAI_FUNC  $end
$var parameter  3 {    LW_SW_FUNC  $end
$var parameter 32 |    ADD  $end
$var parameter 32 }    XOR  $end
$var parameter 32 ~    SLL  $end
$var parameter 32 !!   SUB  $end
$var parameter 32 "!   MUL  $end
$var parameter 32 #!   SRA  $end
$var parameter 32 $!   AND  $end
$var reg       3 %!   ALUCtrl [2:0] $end
$upscope $end


$scope module ALU $end
$var wire     32 Z    data1_i [31:0] $end
$var wire     32 D    data2_i [31:0] $end
$var wire      3 F    ALUCtrl_i [2:0] $end
$var wire     32 E    data_o [31:0] $end
$var wire      1 &!   Zero_o  $end
$var reg      32 '!   data [31:0] $end
$var parameter 32 (!   ADD  $end
$var parameter 32 )!   XOR  $end
$var parameter 32 *!   SLL  $end
$var parameter 32 +!   SUB  $end
$var parameter 32 ,!   MUL  $end
$var parameter 32 -!   SRA  $end
$var parameter 32 .!   AND  $end
$upscope $end


$scope module Control $end
$var wire      7 /!   Op_i [6:0] $end
$var wire      1 ^    NoOp_i  $end
$var wire      2 4    ALUOp_o [1:0] $end
$var wire      1 5    ALUSrc_o  $end
$var wire      1 0    RegWrite_o  $end
$var wire      1 2    MemRead_o  $end
$var wire      1 3    MemWrite_o  $end
$var wire      1 1    MemtoReg_o  $end
$var wire      1 _    Branch_o  $end
$var parameter  7 0!   R_TYPE  $end
$var parameter  7 1!   I_TYPE  $end
$var parameter  7 2!   LW  $end
$var parameter  7 3!   SW  $end
$var parameter  7 4!   BEQ  $end
$var reg       2 5!   ALUOp [1:0] $end
$var reg       1 6!   ALUSrc  $end
$var reg       1 7!   RegWrite  $end
$var reg       1 8!   MemRead  $end
$var reg       1 9!   MemWrite  $end
$var reg       1 :!   MemtoReg  $end
$var reg       1 ;!   Branching  $end
$upscope $end


$scope module Data_Memory $end
$var wire      1 *    clk_i  $end
$var wire     32 L    addr_i [31:0] $end
$var wire      1 J    MemRead_i  $end
$var wire      1 K    MemWrite_i  $end
$var wire     32 M    data_i [31:0] $end
$var wire     32 N    data_o [31:0] $end
$upscope $end


$scope module ImmGen $end
$var wire     32 6    data_i [31:0] $end
$var wire     32 9    data_o [31:0] $end
$var reg      32 <!   data [31:0] $end
$upscope $end


$scope module Instruction_Memory $end
$var wire     32 -    addr_i [31:0] $end
$var wire     32 /    instr_o [31:0] $end
$upscope $end


$scope module MUXtoALU $end
$var wire     32 [    data1_i [31:0] $end
$var wire     32 B    data2_i [31:0] $end
$var wire      1 ?    select_i  $end
$var wire     32 D    data_o [31:0] $end
$upscope $end


$scope module MUXtoReg $end
$var wire     32 R    data1_i [31:0] $end
$var wire     32 S    data2_i [31:0] $end
$var wire      1 Q    select_i  $end
$var wire     32 T    data_o [31:0] $end
$upscope $end


$scope module PC $end
$var wire      1 *    clk_i  $end
$var wire      1 +    rst_i  $end
$var wire      1 ,    start_i  $end
$var wire      1 \    PCWrite_i  $end
$var wire     32 `    pc_i [31:0] $end
$var reg      32 =!   pc_o [31:0] $end
$upscope $end


$scope module Registers $end
$var wire      1 *    clk_i  $end
$var wire      5 >!   RS1addr_i [4:0] $end
$var wire      5 ?!   RS2addr_i [4:0] $end
$var wire      5 U    RDaddr_i [4:0] $end
$var wire     32 T    RDdata_i [31:0] $end
$var wire      1 P    RegWrite_i  $end
$var wire     32 7    RS1data_o [31:0] $end
$var wire     32 8    RS2data_o [31:0] $end
$upscope $end


$scope module RegIFID $end
$var wire      1 *    clk  $end
$var wire      1 ]    stall  $end
$var wire      1 @!   flush  $end
$var wire     32 -    pc_i [31:0] $end
$var wire     32 /    instr_i [31:0] $end
$var wire     32 6    instr_o [31:0] $end
$var wire     32 a    pc_o [31:0] $end
$var reg      32 A!   instr [31:0] $end
$var reg      32 B!   pc [31:0] $end
$upscope $end


$scope module RegIDEX $end
$var wire      1 *    clk  $end
$var wire      1 0    RegWrite_i  $end
$var wire      1 1    MemtoReg_i  $end
$var wire      1 2    MemRead_i  $end
$var wire      1 3    MemWrite_i  $end
$var wire      2 4    ALUOp_i [1:0] $end
$var wire      1 5    ALUSrc_i  $end
$var wire     32 7    Rd1_i [31:0] $end
$var wire     32 8    Rd2_i [31:0] $end
$var wire     32 9    Imm_i [31:0] $end
$var wire     10 C!   ALUCtrl_i [9:0] $end
$var wire      5 D!   RegDest_i [4:0] $end
$var wire      5 E!   Rs1_i [4:0] $end
$var wire      5 F!   Rs2_i [4:0] $end
$var wire      1 :    RegWrite_o  $end
$var wire      1 ;    MemtoReg_o  $end
$var wire      1 <    MemRead_o  $end
$var wire      1 =    MemWrite_o  $end
$var wire      2 >    ALUOp_o [1:0] $end
$var wire      1 ?    ALUSrc_o  $end
$var wire     32 @    Rd1_o [31:0] $end
$var wire     32 A    Rd2_o [31:0] $end
$var wire     32 B    Imm_o [31:0] $end
$var wire     10 C    ALUCtrl_o [9:0] $end
$var wire      5 G    RegDest_o [4:0] $end
$var wire      5 V    Rs1_o [4:0] $end
$var wire      5 W    Rs2_o [4:0] $end
$var reg       1 G!   RegWrite  $end
$var reg       1 H!   MemtoReg  $end
$var reg       1 I!   MemRead  $end
$var reg       1 J!   MemWrite  $end
$var reg       2 K!   ALUOp [1:0] $end
$var reg       1 L!   ALUSrc  $end
$var reg      32 M!   Rd1 [31:0] $end
$var reg      32 N!   Rd2 [31:0] $end
$var reg      32 O!   Imm [31:0] $end
$var reg      10 P!   ALUCtrl [9:0] $end
$var reg       5 Q!   RegDest [4:0] $end
$var reg       5 R!   Rs1 [4:0] $end
$var reg       5 S!   Rs2 [4:0] $end
$upscope $end


$scope module RegEXMEM $end
$var wire      1 *    clk  $end
$var wire      1 :    RegWrite_i  $end
$var wire      1 ;    MemtoReg_i  $end
$var wire      1 <    MemRead_i  $end
$var wire      1 =    MemWrite_i  $end
$var wire     32 E    ALUResult_i [31:0] $end
$var wire     32 [    MemWrData_i [31:0] $end
$var wire      5 G    RegDest_i [4:0] $end
$var wire      1 H    RegWrite_o  $end
$var wire      1 I    MemtoReg_o  $end
$var wire      1 J    MemRead_o  $end
$var wire      1 K    MemWrite_o  $end
$var wire     32 L    ALUResult_o [31:0] $end
$var wire     32 M    MemWrData_o [31:0] $end
$var wire      5 O    RegDest_o [4:0] $end
$var reg       1 T!   RegWrite  $end
$var reg       1 U!   MemtoReg  $end
$var reg       1 V!   MemRead  $end
$var reg       1 W!   MemWrite  $end
$var reg      32 X!   ALUResult [31:0] $end
$var reg      32 Y!   MemWrData [31:0] $end
$var reg       5 Z!   RegDest [4:0] $end
$upscope $end


$scope module RegMEMWB $end
$var wire      1 *    clk  $end
$var wire      1 H    RegWrite_i  $end
$var wire      1 I    MemtoReg_i  $end
$var wire     32 L    ALUResult_i [31:0] $end
$var wire     32 N    MemData_i [31:0] $end
$var wire      5 O    RegDest_i [4:0] $end
$var wire      1 P    RegWrite_o  $end
$var wire      1 Q    MemtoReg_o  $end
$var wire     32 R    ALUResult_o [31:0] $end
$var wire     32 S    MemData_o [31:0] $end
$var wire      5 U    RegDest_o [4:0] $end
$var reg       1 [!   RegWrite  $end
$var reg       1 \!   MemtoReg  $end
$var reg      32 ]!   ALUResult [31:0] $end
$var reg      32 ^!   MemData [31:0] $end
$var reg       5 _!   RegDest [4:0] $end
$upscope $end

$upscope $end

$upscope $end

$enddefinitions $end
$dumpvars
b1100011 4!
b100011 3!
b11 2!
b10011 1!
b110011 0!
b110 .!
b101 -!
b100 ,!
b11 +!
b10 *!
b1 )!
b0 (!
b110 $!
b101 #!
b100 "!
b11 !!
b10 ~
b1 }
b0 |
b10 {
b101 z
b0 y
b1000 x
b100000000 w
b0 v
b1 u
b100 t
b111 s
b1 r
b0 q
b1000000 )
1!
0"
1#
b100000 $
b11 %
b0 &
b0 '
b0 (
1*
1+
0,
b0 -
b100 .
b110000010011 /
00
01
02
03
b0 4
05
b0 6
b0 7
b0 8
b0 9
x:
x;
x<
x=
bx >
x?
bx @
bx A
bx B
bx C
bx D
bx E
bx F
bx G
xH
xI
xJ
xK
bx L
bx M
bx N
bx O
xP
xQ
bx R
bx S
bx T
bx U
bx V
bx W
bx X
bx Y
bx Z
bx [
1\
0]
0^
0_
b100 `
bx a
0b
bx c
0d
b0 e
b0 f
0g
0h
1i
bx j
bx k
bz l
bx m
bz n
bx o
b100 p
bx %!
x&!
bx '!
b0 /!
b0 5!
06!
07!
08!
09!
0:!
0;!
b0 <!
b0 =!
b0 >!
b0 ?!
0@!
b0 A!
bx B!
b0 C!
b0 D!
b0 E!
b0 F!
xG!
xH!
xI!
xJ!
bx K!
xL!
bx M!
bx N!
bx O!
bx P!
bx Q!
bx R!
bx S!
xT!
xU!
xV!
xW!
bx X!
bx Y!
bx Z!
x[!
x\!
bx ]!
bx ^!
bx _!
$end
#12
0#
1"
1,
0+
#25
0!
0*
#50
1!
b1 &
1*
b100 =!
0G!
0H!
0I!
0J!
b0 K!
0L!
b0 M!
b0 N!
b0 O!
b0 P!
b0 Q!
b0 R!
b0 S!
b110000010011 A!
b0 B!
b0 a
b110000010011 6
b0 W
b0 V
b0 G
b0 C
b0 B
b0 A
b0 @
0?
b0 >
0=
0<
0;
0:
b100 -
b0 j
b0 k
b0 %!
b1000 .
b10000000000110100010011 /
b0 F
b0 Y
b0 X
b10011 /!
b11000 D!
b0 c
b0 o
b0 m
b1 5!
17!
16!
15
b1 4
b0 Z
b0 [
b1000 `
10
b0 D
b0 '!
1&!
b0 E
#75
0!
0*
#100
1!
b10 &
1*
b1000 =!
0T!
0U!
0V!
0W!
b0 X!
b0 Y!
b0 Z!
1G!
b1 K!
1L!
b11000 Q!
b10000000000110100010011 A!
b100 B!
b100 a
b10000000000110100010011 6
b11000 G
1?
b1 >
1:
b0 O
b0 M
b0 L
0K
0J
0I
0H
b1000 -
b100 <!
b1100 .
b10000000000111000010011 /
b0 N
b100 F!
b100 ?!
b100 f
b11010 D!
b100 9
b100 c
b1100 c
b1100 `
#125
0!
0*
#150
1!
b11 &
1*
b1100 =!
0[!
0\!
b0 ]!
b0 ^!
b0 _!
1T!
b11000 Z!
b100 O!
b11010 Q!
b100 S!
b10000000000111000010011 A!
b1000 B!
b1000 a
b10000000000111000010011 6
b100 W
b11010 G
b100 B
b11000 O
1H
b0 U
b0 S
b0 R
0Q
0P
b1100 -
b10000 .
b11111111111100000000011110010011 /
b0 T
b100 D
b11100 D!
b10000 c
b100 '!
0&!
b100 E
b10000 `
#175
0!
0*
#200
1!
b100 &
1*
b10000 =!
1[!
b11000 _!
b100 X!
b11010 Z!
b11100 Q!
b11111111111100000000011110010011 A!
b1100 B!
b1100 a
b11111111111100000000011110010011 6
b11100 G
b11010 O
b100 L
b11000 U
1P
b10000 -
b11111111111111111111111111111111 <!
b10100 .
b11110011010000110010110011 /
b11111 F!
b11111 ?!
b11111 f
b1111111000 C!
b1111 D!
b11111111111111111111111111111111 9
b10100 c
b1010 c
b111110 8
b10100 `
#225
0!
0*
#250
1!
b101 &
1*
b10100 =!
b100 ]!
b11010 _!
b11100 Z!
b111110 N!
b11111111111111111111111111111111 O!
b1111111000 P!
b1111 Q!
b11111 S!
b11110011010000110010110011 A!
b10000 B!
b10000 a
b11110011010000110010110011 6
b11111 W
b1111 G
b1111111000 C
b11111111111111111111111111111111 B
b111110 A
b11100 O
b11010 U
b100 R
b10100 -
b0 <!
b111110 o
b11000 .
b11111111111111010000110100010011 /
b100 T
b111110 [
b11111111111111111111111111111111 D
b11010 E!
b11010 >!
b11010 e
b11100 F!
b11100 ?!
b11100 f
b110011 /!
b1000 C!
b11001 D!
b0 9
b1110 c
b11111111111111111111111111111111 '!
b0 5!
06!
b10000 c
05
b0 4
b11111111111111111111111111111111 E
b100 7
b111000 8
b11000 `
#275
0!
0*
#300
1!
b110 &
1*
b11000 =!
b11100 _!
b11111111111111111111111111111111 X!
b111110 Y!
b1111 Z!
b0 K!
0L!
b100 M!
b111000 N!
b0 O!
b1000 P!
b11001 Q!
b11010 R!
b11100 S!
b11111111111111010000110100010011 A!
b10100 B!
b10100 a
b11111111111111010000110100010011 6
b11100 W
b11010 V
b11001 G
b1000 C
b0 B
b111000 A
b100 @
0?
b0 >
b1111 O
b111110 M
b11111111111111111111111111111111 L
b11100 U
b11000 -
b11111111111111111111111111111111 <!
b1 k
b100 %!
b111000 o
b100 m
b11100 .
b11001010110110000011 /
b100 8
b100 Z
b111000 [
b111110 D
b100 F
b1 Y
b11111 F!
b11111 ?!
b11111 f
b10011 /!
b1111111000 C!
b11010 D!
b11111111111111111111111111111111 9
b10100 c
b11111000 '!
b100 o
b1 5!
16!
b10010 c
15
b1 4
b111110 8
b100 [
b111000 D
b11111000 E
b11100 `
b11100000 '!
b11100000 E
b100 D
b10000 '!
1&!
b10000 E
#325
0!
0*
#350
1!
b111 &
1*
b11100 =!
b11111111111111111111111111111111 ]!
b1111 _!
b10000 X!
b100 Y!
b11001 Z!
b1 K!
1L!
b111110 N!
b11111111111111111111111111111111 O!
b1111111000 P!
b11010 Q!
b11111 S!
b11001010110110000011 A!
b11000 B!
b11000 a
b11001010110110000011 6
b11111 W
b11010 G
b1111111000 C
b11111111111111111111111111111111 B
b111110 A
1?
b1 >
b11001 O
b100 M
b10000 L
b1111 U
b11111111111111111111111111111111 R
b11100 -
b0 <!
b0 k
b0 %!
b100000 .
b1101111000000110000110011 /
b11111111111111111111111111111111 T
b11111111111111111111111111111111 D
b0 F
b0 Y
b11001 E!
b11001 >!
b11001 e
b0 F!
b0 ?!
b0 f
b11 /!
b10 C!
b11011 D!
b0 9
b10110 c
b111110 o
b11 '!
18!
1:!
b11000 c
11
12
0&!
b11 E
b111110 [
b11111111111111111111111111100111 7
b0 8
b100000 `
#375
0!
0*
#400
1!
b1000 &
1*
b100000 =!
b10000 ]!
b11001 _!
b11 X!
b111110 Y!
b11010 Z!
1H!
1I!
b11111111111111111111111111100111 M!
b0 N!
b0 O!
b10 P!
b11011 Q!
b11001 R!
b0 S!
b1101111000000110000110011 A!
b11100 B!
b11100 a
b1101111000000110000110011 6
b0 W
b11001 V
b11011 G
b10 C
b0 B
b0 A
b11111111111111111111111111100111 @
1<
1;
b11010 O
b111110 M
b11 L
b11001 U
b10000 R
b100000 -
b1 j
b0 o
b11111111111111111111111111100111 m
b100100 .
b111111010000010001100011 /
b10000 T
b11111111111111111111111111111111 7
b11111111111111111111111111100111 Z
b0 [
b0 D
b1 X
b11000 E!
b11000 >!
b11000 e
b11011 F!
b11011 ?!
b11011 f
b110011 /!
b0 C!
b11000 D!
b11100 c
b10000 m
b11111111111111111111111111100111 '!
1g
1h
0i
b0 5!
06!
08!
0:!
01
02
05
b0 4
0\
1]
1^
b11111111111111111111111111100111 E
b10000 Z
b0 7
b11111111111111111111111111100101 8
b100100 `
07!
b10000 '!
b10000 E
00
#425
0!
0*
#450
1!
b1 '
b1001 &
1*
b11 ]!
b11010 _!
1U!
1V!
b10000 X!
b0 Y!
b11011 Z!
0G!
0H!
0I!
b0 K!
0L!
b0 M!
b11111111111111111111111111100101 N!
b0 P!
b11000 Q!
b11000 R!
b11011 S!
b11011 W
b11000 V
b11000 G
b0 C
b11111111111111111111111111100101 A
b0 @
0?
b0 >
0<
0;
0:
b11011 O
b0 M
b10000 L
1J
1I
b11010 U
b11 R
b0 j
b10 k
0g
0h
1i
b11111111111111111111111111100101 o
b11 T
b11101 N
b11111111111111111111111111100101 [
1\
0]
0^
b10 Y
b0 X
b10000 o
b0 m
17!
b11111111111111111111111111100101 D
b0 Z
b10000 [
10
b11111111111111111111111111100101 '!
b10000 D
b11111111111111111111111111100101 E
b10000 '!
b10000 E
#475
0!
0*
#500
1!
b1010 &
1*
b100100 =!
1\!
b10000 ]!
b11101 ^!
b11011 _!
0T!
0U!
0V!
b10000 Y!
b11000 Z!
1G!
b111111010000010001100011 A!
b100000 B!
b100000 a
b111111010000010001100011 6
1:
b11000 O
b10000 M
0J
0I
0H
b11011 U
b11101 S
b10000 R
1Q
b100100 -
b100 <!
b1 k
b101000 .
b11111110000000000000011011100011 /
b11101 T
b11 8
b0 N
b1 Y
b11010 E!
b11010 >!
b11010 e
b1111 F!
b1111 ?!
b1111 f
b1100011 /!
b1000 D!
b100 9
b100000 c
b11101 o
07!
16!
1;!
b101000 c
1_
15
b11101 [
b11 7
b11111111111111111111111111111111 8
b101000 `
00
b11101 D
b11101 '!
b11101 E
#525
0!
0*
#550
1!
b1011 &
1*
b101000 =!
0[!
0\!
b0 ^!
b11000 _!
1T!
b11101 X!
b11101 Y!
0G!
1L!
b11 M!
b11111111111111111111111111111111 N!
b100 O!
b1000 Q!
b11010 R!
b1111 S!
b11111110000000000000011011100011 A!
b100100 B!
b100100 a
b11111110000000000000011011100011 6
b1111 W
b11010 V
b1000 G
b100 B
b11111111111111111111111111111111 A
b11 @
1?
0:
b11101 M
b11101 L
1H
b11000 U
b0 S
0Q
0P
b101000 -
b11111111111111111111111111110110 <!
b0 k
b11 m
b101100 .
b1100000000010111000100011 /
b10000 T
b11 Z
b100 D
b0 Y
b0 E!
b0 >!
b0 e
b0 F!
b0 ?!
b0 f
b1111111000 C!
b1101 D!
b11111111111111111111111111110110 9
b101100 c
b11111111111111111111111111111111 o
b111 '!
b10000 c
b111 E
b11111111111111111111111111111111 [
b0 7
b0 8
b101100 `
1b
1@!
1d
b10000 `
#575
0!
0*
#600
1!
b1 (
b1100 &
1*
b10000 =!
1[!
b11101 ]!
0T!
b111 X!
b11111111111111111111111111111111 Y!
b1000 Z!
b0 M!
b0 N!
b11111111111111111111111111110110 O!
b1111111000 P!
b1101 Q!
b0 R!
b0 S!
b0 A!
b101000 B!
b101000 a
b0 6
b0 W
b0 V
b1101 G
b1111111000 C
b11111111111111111111111111110110 B
b0 A
b0 @
b1000 O
b11111111111111111111111111111111 M
b111 L
0H
b11101 R
1P
b10000 -
b0 <!
b0 o
b0 m
b10100 .
b11110011010000110010110011 /
b11101 T
b0 Z
b0 [
b11111111111111111111111111110110 D
b0 /!
b0 C!
b0 D!
b0 9
b10100 c
b11111111111111111111111111110110 '!
06!
0;!
b101000 c
0_
05
b11111111111111111111111111110110 E
b10100 `
0b
0@!
0d
b101000 `
b10100 `
#625
0!
0*
#650
1!
b1101 &
1*
b10100 =!
0[!
b111 ]!
b1000 _!
b11111111111111111111111111110110 X!
b0 Y!
b1101 Z!
0L!
b0 O!
b0 P!
b0 Q!
b11110011010000110010110011 A!
b10000 B!
b10000 a
b11110011010000110010110011 6
b0 G
b0 C
b0 B
0?
b1101 O
b0 M
b11111111111111111111111111110110 L
b1000 U
b111 R
0P
b10100 -
b11000 .
b11111111111111010000110100010011 /
b111 T
b0 D
b11010 E!
b11010 >!
b11010 e
b11100 F!
b11100 ?!
b11100 f
b110011 /!
b1000 C!
b11001 D!
b10000 c
b0 '!
17!
1&!
b0 E
b11 7
b100 8
b11000 `
10
#675
0!
0*
#700
1!
b1110 &
1*
b11000 =!
b11111111111111111111111111110110 ]!
b1101 _!
b0 X!
b0 Z!
1G!
b11 M!
b100 N!
b1000 P!
b11001 Q!
b11010 R!
b11100 S!
b11111111111111010000110100010011 A!
b10100 B!
b10100 a
b11111111111111010000110100010011 6
b11100 W
b11010 V
b11001 G
b1000 C
b100 A
b11 @
1:
b0 O
b0 L
b1101 U
b11111111111111111111111111110110 R
b11000 -
b11111111111111111111111111111111 <!
b100 %!
b100 o
b11 m
b11100 .
b11001010110110000011 /
b11111111111111111111111111110110 T
b11 Z
b100 [
b100 F
b11111 F!
b11111 ?!
b11111 f
b10011 /!
b1111111000 C!
b11010 D!
b11111111111111111111111111111111 9
b10100 c
b1 5!
16!
b10010 c
15
b1 4
b100 D
0&!
b111110 8
b11100 `
b1100 '!
b1100 E
#725
0!
0*
#750
1!
b1111 &
1*
b11100 =!
b0 ]!
b0 _!
1T!
b1100 X!
b100 Y!
b11001 Z!
b1 K!
1L!
b111110 N!
b11111111111111111111111111111111 O!
b1111111000 P!
b11010 Q!
b11111 S!
b11001010110110000011 A!
b11000 B!
b11000 a
b11001010110110000011 6
b11111 W
b11010 G
b1111111000 C
b11111111111111111111111111111111 B
b111110 A
1?
b1 >
b11001 O
b100 M
b1100 L
1H
b0 U
b0 R
b11100 -
b0 <!
b0 %!
b111110 o
b100000 .
b1101111000000110000110011 /
b0 T
b111110 [
b11111111111111111111111111111111 D
b0 F
b11001 E!
b11001 >!
b11001 e
b0 F!
b0 ?!
b0 f
b11 /!
b10 C!
b11011 D!
b0 9
b10110 c
b10 '!
18!
1:!
b11000 c
11
12
b10 E
b10000 7
b0 8
b100000 `
#775
0!
0*
#800
1!
b10000 &
1*
b100000 =!
1[!
b1100 ]!
b11001 _!
b10 X!
b111110 Y!
b11010 Z!
1H!
1I!
b10000 M!
b0 N!
b0 O!
b10 P!
b11011 Q!
b11001 R!
b0 S!
b1101111000000110000110011 A!
b11100 B!
b11100 a
b1101111000000110000110011 6
b0 W
b11001 V
b11011 G
b10 C
b0 B
b0 A
b10000 @
1<
1;
b11010 O
b111110 M
b10 L
b11001 U
b1100 R
1P
b100000 -
b1 j
b0 o
b10000 m
b100100 .
b111111010000010001100011 /
b1100 T
b0 7
b10000 Z
b0 [
b0 D
b1 X
b11000 E!
b11000 >!
b11000 e
b11011 F!
b11011 ?!
b11011 f
b110011 /!
b0 C!
b11000 D!
b11100 c
b1100 m
b10000 '!
1g
1h
0i
b0 5!
06!
08!
0:!
01
02
05
b0 4
0\
1]
1^
b10000 E
b1100 Z
b11101 7
b11101 8
b100100 `
07!
b1100 '!
b1100 E
00
#825
0!
0*
#850
1!
b10 '
b10001 &
1*
b10 ]!
b11010 _!
1U!
1V!
b1100 X!
b0 Y!
b11011 Z!
0G!
0H!
0I!
b0 K!
0L!
b11101 M!
b11101 N!
b0 P!
b11000 Q!
b11000 R!
b11011 S!
b11011 W
b11000 V
b11000 G
b0 C
b11101 A
b11101 @
0?
b0 >
0<
0;
0:
b11011 O
b0 M
b1100 L
1J
1I
b11010 U
b10 R
b0 j
b10 k
0g
0h
1i
b11101 o
b10 T
b10010 N
b11101 [
1\
0]
0^
b10 Y
b0 X
b1100 o
b11101 m
17!
b11101 D
b11101 Z
b1100 [
10
b111010 '!
b1100 D
1&!
b111010 E
b101001 '!
0&!
b101001 E
#875
0!
0*
#900
1!
b10010 &
1*
b100100 =!
1\!
b1100 ]!
b10010 ^!
b11011 _!
0T!
0U!
0V!
b101001 X!
b1100 Y!
b11000 Z!
1G!
b111111010000010001100011 A!
b100000 B!
b100000 a
b111111010000010001100011 6
1:
b11000 O
b1100 M
b101001 L
0J
0I
0H
b11011 U
b10010 S
b1100 R
1Q
b100100 -
b100 <!
b1 k
b101001 o
b101000 .
b11111110000000000000011011100011 /
b10010 T
b10 8
b101001 [
b0 N
b1 Y
b11010 E!
b11010 >!
b11010 e
b1111 F!
b1111 ?!
b1111 f
b1100011 /!
b1000 D!
b100 9
b100000 c
b10010 o
07!
16!
1;!
b101000 c
1_
15
b101001 D
b10010 [
b10 7
b11111111111111111111111111111111 8
b101000 `
00
b1000110 '!
b10010 D
b1000110 E
b101111 '!
b101111 E
#925
0!
0*
