Lab1/codes/CPU.vcd
$date
	Mon Dec  5 05:12:42 2022
$end
$version
	Icarus Verilog
$end
$timescale
	1s
$end
$scope module TestBench $end
$var reg 1 ! Clk $end
$var reg 1 " Reset $end
$var reg 1 # Start $end
$var integer 32 $ counter [31:0] $end
$var integer 32 % flush [31:0] $end
$var integer 32 & i [31:0] $end
$var integer 32 ' outfile [31:0] $end
$var integer 32 ( stall [31:0] $end
$scope module CPU $end
$var wire 1 ) ID_RegWrite_toRegIDEX $end
$var wire 1 ! clk_i $end
$var wire 1 " rst_i $end
$var wire 1 # start_i $end
$var wire 1 * stall $end
$var wire 2 + forwardB [1:0] $end
$var wire 2 , forwardA [1:0] $end
$var wire 32 - WB_RegWriteData [31:0] $end
$var wire 1 . WB_RegWrite $end
$var wire 5 / WB_RegDest [4:0] $end
$var wire 1 0 WB_MemtoReg $end
$var wire 32 1 WB_MemReadData [31:0] $end
$var wire 32 2 WB_ALUResult [31:0] $end
$var wire 1 3 PCWrite $end
$var wire 1 4 NoOp $end
$var wire 1 5 MEM_RegWrite_toRegMEMWB $end
$var wire 5 6 MEM_RegDest [4:0] $end
$var wire 1 7 MEM_MemtoReg_toRegMEMWB $end
$var wire 32 8 MEM_MemWriteData [31:0] $end
$var wire 1 9 MEM_MemWrite $end
$var wire 32 : MEM_MemReadData [31:0] $end
$var wire 1 ; MEM_MemRead $end
$var wire 32 < MEM_MemAddr_or_ALUResult [31:0] $end
$var wire 32 = IF_pc_o [31:0] $end
$var wire 32 > IF_pc_mux_i [31:0] $end
$var wire 32 ? IF_pc_i [31:0] $end
$var wire 32 @ IF_instr_mem_o [31:0] $end
$var wire 32 A ID_pc [31:0] $end
$var wire 32 B ID_instr_fromIF [31:0] $end
$var wire 32 C ID_Rd2_toRegIDEX [31:0] $end
$var wire 32 D ID_Rd1_toRegIDEX [31:0] $end
$var wire 1 E ID_MemtoReg_toRegIDEX $end
$var wire 1 F ID_MemWrite_toRegIDEX $end
$var wire 1 G ID_MemRead_toRegIDEX $end
$var wire 32 H ID_ImmGen_toRegIDEX [31:0] $end
$var wire 1 I ID_ALUSrc_toRegIDEX $end
$var wire 2 J ID_ALUOp_toRegIDEX [1:0] $end
$var wire 5 K EX_Rs2_to_forwardUnit [4:0] $end
$var wire 5 L EX_Rs1_to_forwardUnit [4:0] $end
$var wire 1 M EX_RegWrite_toRegEXMEM $end
$var wire 5 N EX_RegDest [4:0] $end
$var wire 32 O EX_Rd2_MUX_to_MUX [31:0] $end
$var wire 32 P EX_Rd2 [31:0] $end
$var wire 32 Q EX_Rd1 [31:0] $end
$var wire 1 R EX_MemtoReg_toRegEXMEM $end
$var wire 1 S EX_MemWrite_toRegEXMEM $end
$var wire 1 T EX_MemRead_toRegEXMEM $end
$var wire 32 U EX_MUXtoALU [31:0] $end
$var wire 32 V EX_MUX_to_Rd1 [31:0] $end
$var wire 32 W EX_Imm [31:0] $end
$var wire 10 X EX_ALUfunct [9:0] $end
$var wire 32 Y EX_ALU_toRegEXMEM [31:0] $end
$var wire 1 Z EX_ALUSrc $end
$var wire 2 [ EX_ALUOp [1:0] $end
$var wire 3 \ EX_ALUCtrl_o [2:0] $end
$var wire 1 ] Branching $end
$var reg 1 ^ Flush $end
$scope module ALU $end
$var wire 32 _ data_o [31:0] $end
$var wire 32 ` data2_i [31:0] $end
$var wire 32 a data1_i [31:0] $end
$var wire 1 b Zero_o $end
$var wire 3 c ALUCtrl_i [2:0] $end
$var reg 32 d data [31:0] $end
$upscope $end
$scope module ALUCtrl $end
$var wire 3 e ALUCtrl_o [2:0] $end
$var wire 10 f funct_i [9:0] $end
$var wire 2 g ALUOp_i [1:0] $end
$var reg 3 h ALUCtrl [2:0] $end
$upscope $end
$scope module Control $end
$var wire 2 i ALUOp_o [1:0] $end
$var wire 1 I ALUSrc_o $end
$var wire 1 G MemRead_o $end
$var wire 1 F MemWrite_o $end
$var wire 1 E MemtoReg_o $end
$var wire 7 j Op_i [6:0] $end
$var wire 1 ) RegWrite_o $end
$var wire 1 4 NoOp_i $end
$var wire 1 ] Branch_o $end
$var reg 2 k ALUOp [1:0] $end
$var reg 1 l ALUSrc $end
$var reg 1 ] Branching $end
$var reg 1 m MemRead $end
$var reg 1 n MemWrite $end
$var reg 1 o MemtoReg $end
$var reg 1 p RegWrite $end
$upscope $end
$scope module Data_Memory $end
$var wire 1 ! clk_i $end
$var wire 32 q data_o [31:0] $end
$var wire 32 r data_i [31:0] $end
$var wire 32 s addr_i [31:0] $end
$var wire 1 9 MemWrite_i $end
$var wire 1 ; MemRead_i $end
$upscope $end
$scope module EX_Rd1_to_ALU $end
$var wire 32 t data11_i [31:0] $end
$var wire 32 u data_o [31:0] $end
$var wire 2 v select_i [1:0] $end
$var wire 32 w data10_i [31:0] $end
$var wire 32 x data01_i [31:0] $end
$var wire 32 y data00_i [31:0] $end
$var reg 32 z data [31:0] $end
$upscope $end
$scope module EX_Rd2_to_ALU $end
$var wire 32 { data11_i [31:0] $end
$var wire 32 | data_o [31:0] $end
$var wire 2 } select_i [1:0] $end
$var wire 32 ~ data10_i [31:0] $end
$var wire 32 !" data01_i [31:0] $end
$var wire 32 "" data00_i [31:0] $end
$var reg 32 #" data [31:0] $end
$upscope $end
$scope module Hazard_Detection $end
$var wire 5 $" ID_Rs1_i [4:0] $end
$var wire 5 %" ID_Rs2_i [4:0] $end
$var wire 1 4 NoOp_o $end
$var wire 1 3 PCWrite_o $end
$var wire 1 * Stall_o $end
$var wire 5 &" EX_RegDest_i [4:0] $end
$var wire 1 T EX_MemRead_i $end
$var reg 1 '" NoOp $end
$var reg 1 (" PCWrite $end
$var reg 1 )" stall $end
$upscope $end
$scope module ImmGen $end
$var wire 32 *" data_o [31:0] $end
$var wire 32 +" data_i [31:0] $end
$var reg 32 ," data [31:0] $end
$upscope $end
$scope module Instruction_Memory $end
$var wire 32 -" instr_o [31:0] $end
$var wire 32 ." addr_i [31:0] $end
$upscope $end
$scope module MUXtoALU $end
$var wire 32 /" data1_i [31:0] $end
$var wire 1 Z select_i $end
$var wire 32 0" data_o [31:0] $end
$var wire 32 1" data2_i [31:0] $end
$upscope $end
$scope module MUXtoReg $end
$var wire 1 0 select_i $end
$var wire 32 2" data_o [31:0] $end
$var wire 32 3" data2_i [31:0] $end
$var wire 32 4" data1_i [31:0] $end
$upscope $end
$scope module PC $end
$var wire 1 3 PCWrite_i $end
$var wire 1 ! clk_i $end
$var wire 1 " rst_i $end
$var wire 1 # start_i $end
$var wire 32 5" pc_i [31:0] $end
$var reg 32 6" pc_o [31:0] $end
$upscope $end
$scope module PC_Adder $end
$var wire 32 7" data1_in [31:0] $end
$var wire 32 8" data2_in [31:0] $end
$var wire 32 9" data_o [31:0] $end
$upscope $end
$scope module PC_Branching $end
$var wire 32 :" data1_i [31:0] $end
$var wire 32 ;" data2_i [31:0] $end
$var wire 1 <" select_i $end
$var wire 32 =" data_o [31:0] $end
$upscope $end
$scope module RegEXMEM $end
$var wire 32 >" ALUResult_i [31:0] $end
$var wire 32 ?" ALUResult_o [31:0] $end
$var wire 1 ; MemRead_o $end
$var wire 32 @" MemWrData_i [31:0] $end
$var wire 32 A" MemWrData_o [31:0] $end
$var wire 1 9 MemWrite_o $end
$var wire 1 7 MemtoReg_o $end
$var wire 5 B" RegDest_o [4:0] $end
$var wire 1 5 RegWrite_o $end
$var wire 1 ! clk $end
$var wire 1 M RegWrite_i $end
$var wire 5 C" RegDest_i [4:0] $end
$var wire 1 R MemtoReg_i $end
$var wire 1 S MemWrite_i $end
$var wire 1 T MemRead_i $end
$var reg 32 D" ALUResult [31:0] $end
$var reg 1 ; MemRead $end
$var reg 32 E" MemWrData [31:0] $end
$var reg 1 F" MemWrite $end
$var reg 1 G" MemtoReg $end
$var reg 5 H" RegDest [4:0] $end
$var reg 1 I" RegWrite $end
$upscope $end
$scope module RegIDEX $end
$var wire 10 J" ALUCtrl_i [9:0] $end
$var wire 10 K" ALUCtrl_o [9:0] $end
$var wire 2 L" ALUOp_i [1:0] $end
$var wire 2 M" ALUOp_o [1:0] $end
$var wire 1 I ALUSrc_i $end
$var wire 1 Z ALUSrc_o $end
$var wire 32 N" Imm_i [31:0] $end
$var wire 32 O" Imm_o [31:0] $end
$var wire 1 G MemRead_i $end
$var wire 1 T MemRead_o $end
$var wire 1 F MemWrite_i $end
$var wire 1 S MemWrite_o $end
$var wire 1 E MemtoReg_i $end
$var wire 1 R MemtoReg_o $end
$var wire 32 P" Rd1_o [31:0] $end
$var wire 32 Q" Rd2_o [31:0] $end
$var wire 5 R" RegDest_i [4:0] $end
$var wire 5 S" RegDest_o [4:0] $end
$var wire 1 ) RegWrite_i $end
$var wire 1 M RegWrite_o $end
$var wire 5 T" Rs1_i [4:0] $end
$var wire 5 U" Rs1_o [4:0] $end
$var wire 5 V" Rs2_i [4:0] $end
$var wire 5 W" Rs2_o [4:0] $end
$var wire 1 ! clk $end
$var wire 32 X" Rd2_i [31:0] $end
$var wire 32 Y" Rd1_i [31:0] $end
$var reg 10 Z" ALUCtrl [9:0] $end
$var reg 2 [" ALUOp [1:0] $end
$var reg 1 Z ALUSrc $end
$var reg 32 \" Imm [31:0] $end
$var reg 1 ]" MemRead $end
$var reg 1 ^" MemWrite $end
$var reg 1 _" MemtoReg $end
$var reg 32 `" Rd1 [31:0] $end
$var reg 32 a" Rd2 [31:0] $end
$var reg 5 b" RegDest [4:0] $end
$var reg 1 c" RegWrite $end
$var reg 5 d" Rs1 [4:0] $end
$var reg 5 e" Rs2 [4:0] $end
$upscope $end
$scope module RegIFID $end
$var wire 1 ! clk $end
$var wire 1 f" flush $end
$var wire 32 g" instr_i [31:0] $end
$var wire 32 h" instr_o [31:0] $end
$var wire 32 i" pc_i [31:0] $end
$var wire 32 j" pc_o [31:0] $end
$var wire 1 * stall $end
$var reg 32 k" instr [31:0] $end
$var reg 32 l" pc [31:0] $end
$upscope $end
$scope module RegMEMWB $end
$var wire 32 m" ALUResult_i [31:0] $end
$var wire 32 n" ALUResult_o [31:0] $end
$var wire 32 o" MemData_i [31:0] $end
$var wire 32 p" MemData_o [31:0] $end
$var wire 1 7 MemtoReg_i $end
$var wire 1 0 MemtoReg_o $end
$var wire 5 q" RegDest_i [4:0] $end
$var wire 5 r" RegDest_o [4:0] $end
$var wire 1 5 RegWrite_i $end
$var wire 1 . RegWrite_o $end
$var wire 1 ! clk $end
$var reg 32 s" ALUResult [31:0] $end
$var reg 32 t" MemData [31:0] $end
$var reg 1 0 MemtoReg $end
$var reg 5 u" RegDest [4:0] $end
$var reg 1 . RegWrite $end
$upscope $end
$scope module Registers $end
$var wire 5 v" RDaddr_i [4:0] $end
$var wire 32 w" RDdata_i [31:0] $end
$var wire 5 x" RS1addr_i [4:0] $end
$var wire 5 y" RS2addr_i [4:0] $end
$var wire 1 . RegWrite_i $end
$var wire 1 ! clk_i $end
$var wire 32 z" RS2data_o [31:0] $end
$var wire 32 {" RS1data_o [31:0] $end
$upscope $end
$scope module forwarding_unit $end
$var wire 5 |" EX_Rs1_i [4:0] $end
$var wire 5 }" EX_Rs2_i [4:0] $end
$var wire 5 ~" MEM_Rd_i [4:0] $end
$var wire 1 5 MEM_RegWrite_i $end
$var wire 5 !# WB_RegDest_i [4:0] $end
$var wire 1 . WB_RegWrite_i $end
$var wire 2 "# forwardA_o [1:0] $end
$var wire 2 ## forwardB_o [1:0] $end
$var reg 2 $# forwardA [1:0] $end
$var reg 2 %# forwardB [1:0] $end
$upscope $end
$upscope $end
$upscope $end
$enddefinitions $end
#0
$dumpvars
bx %#
bx $#
bx ##
bx "#
bx !#
bx ~"
bx }"
bx |"
b0 {"
b0 z"
b0 y"
b0 x"
bx w"
bx v"
bx u"
bx t"
bx s"
bx r"
bx q"
bx p"
bx o"
bx n"
bx m"
bx l"
b0 k"
bx j"
b0 i"
b0 h"
b101000000000001000010011 g"
0f"
bx e"
bx d"
xc"
bx b"
bx a"
bx `"
x_"
x^"
x]"
bx \"
bx ["
bx Z"
b0 Y"
b0 X"
bx W"
b0 V"
bx U"
b0 T"
bx S"
b0 R"
bx Q"
bx P"
bx O"
b0 N"
bx M"
b0 L"
bx K"
b0 J"
xI"
bx H"
xG"
xF"
bx E"
bx D"
bx C"
bx B"
bx A"
bx @"
bx ?"
bx >"
b100 ="
0<"
bx ;"
b100 :"
b100 9"
b100 8"
b0 7"
b0 6"
b100 5"
bx 4"
bx 3"
bx 2"
bx 1"
bx 0"
bx /"
b0 ."
b101000000000001000010011 -"
b0 ,"
b0 +"
b0 *"
0)"
1("
0'"
bx &"
b0 %"
b0 $"
bx #"
bx ""
bx !"
bx ~
bx }
bx |
bz {
bx z
bx y
bx x
bx w
bx v
bx u
bz t
bx s
bx r
bx q
0p
0o
0n
0m
0l
b0 k
b0 j
b0 i
bx h
bx g
bx f
bx e
bx d
bx c
xb
bx a
bx `
bx _
0^
0]
bx \
bx [
xZ
bx Y
bx X
bx W
bx V
bx U
xT
xS
xR
bx Q
bx P
bx O
bx N
xM
bx L
bx K
b0 J
0I
b0 H
0G
0F
0E
b0 D
b0 C
b0 B
bx A
b101000000000001000010011 @
b100 ?
b100 >
b0 =
bx <
x;
bx :
x9
bx 8
x7
bx 6
x5
04
13
bx 2
bx 1
x0
bx /
x.
bx -
bx ,
bx +
0*
0)
b0 (
b11 '
b100000 &
b0 %
b0 $
0#
1"
1!
$end
#12
1#
0"
#25
0!
#50
1b
b0 Y
b0 _
b0 >"
b0 d
b0 U
b0 `
b0 0"
b0 O
b0 |
b0 #"
b0 /"
b0 @"
b0 V
b0 a
b0 u
b0 z
1I
1l
1)
1p
b1 J
b1 i
b1 L"
b1 k
b0 +
b0 }
b0 ##
b0 %#
b0 ,
b0 v
b0 "#
b0 $#
b0 \
b0 c
b0 e
b0 h
b1010 V"
b100 R"
b1010 y"
b10011 j
b1010 %"
b1010 H
b1010 *"
b1010 ,"
b1010 N"
b1000 >
b1000 5"
b1000 ="
b110000000000001010010011 @
b110000000000001010010011 -"
b110000000000001010010011 g"
b0 K
b0 W"
b0 }"
b0 e"
b0 L
b0 U"
b0 |"
b0 d"
b0 N
b0 &"
b0 C"
b0 S"
b0 b"
b0 X
b0 f
b0 K"
b0 Z"
b0 W
b0 1"
b0 O"
b0 \"
b0 P
b0 ""
b0 Q"
b0 a"
b0 Q
b0 y
b0 P"
b0 `"
0Z
b0 [
b0 g
b0 M"
b0 ["
0S
0^"
0T
0]"
0R
0_"
0M
0c"
b10100 ;"
b0 A
b0 j"
b0 l"
b101000000000001000010011 B
b101000000000001000010011 +"
b101000000000001000010011 h"
b101000000000001000010011 k"
b1000 ?
b1000 9"
b1000 :"
b100 =
b100 ."
b100 6"
b100 7"
b100 i"
b1 $
1!
#75
0!
#100
0b
b1010 Y
b1010 _
b1010 >"
b1010 d
b1100 V"
b101 R"
b1100 y"
b1100 %"
b1100 H
b1100 *"
b1100 ,"
b1100 N"
b1010 U
b1010 `
b1010 0"
b0 :
b0 q
b0 o"
b1100 >
b1100 5"
b1100 ="
b11111111001100000000001100010011 @
b11111111001100000000001100010011 -"
b11111111001100000000001100010011 g"
b11100 ;"
b100 A
b100 j"
b100 l"
b110000000000001010010011 B
b110000000000001010010011 +"
b110000000000001010010011 h"
b110000000000001010010011 k"
b1010 K
b1010 W"
b1010 }"
b1010 e"
b100 N
b100 &"
b100 C"
b100 S"
b100 b"
b1010 W
b1010 1"
b1010 O"
b1010 \"
1Z
b1 [
b1 g
b1 M"
b1 ["
1M
1c"
b0 6
b0 B"
b0 q"
b0 ~"
b0 H"
b0 8
b0 r
b0 A"
b0 E"
b0 <
b0 s
b0 w
b0 ~
b0 ?"
b0 D"
b0 m"
09
0F"
0;
07
0G"
05
0I"
b1100 ?
b1100 9"
b1100 :"
b1000 =
b1000 ."
b1000 6"
b1000 7"
b1000 i"
b10 $
1!
#125
0!
#150
b1100 Y
b1100 _
b1100 >"
b1100 d
b0 -
b0 x
b0 !"
b0 2"
b0 w"
b1100 U
b1100 `
b1100 0"
b10011 V"
b110 R"
b1111111000 J"
b10011 y"
b10011 %"
b11111111111111111111111111110011 H
b11111111111111111111111111110011 *"
b11111111111111111111111111110011 ,"
b11111111111111111111111111110011 N"
b10000 >
b10000 5"
b10000 ="
b1000000000000001110010011 @
b1000000000000001110010011 -"
b1000000000000001110010011 g"
b0 /
b0 r"
b0 u"
b0 v"
b0 !#
b0 1
b0 3"
b0 p"
b0 t"
b0 2
b0 4"
b0 n"
b0 s"
00
0.
b100 6
b100 B"
b100 q"
b100 ~"
b100 H"
b1010 <
b1010 s
b1010 w
b1010 ~
b1010 ?"
b1010 D"
b1010 m"
15
1I"
b1100 K
b1100 W"
b1100 }"
b1100 e"
b101 N
b101 &"
b101 C"
b101 S"
b101 b"
b1100 W
b1100 1"
b1100 O"
b1100 \"
b11111111111111111111111111101110 ;"
b1000 A
b1000 j"
b1000 l"
b11111111001100000000001100010011 B
b11111111001100000000001100010011 +"
b11111111001100000000001100010011 h"
b11111111001100000000001100010011 k"
b10000 ?
b10000 9"
b10000 :"
b1100 =
b1100 ."
b1100 6"
b1100 7"
b1100 i"
b11 $
1!
#175
0!
#200
b11111111111111111111111111110011 Y
b11111111111111111111111111110011 _
b11111111111111111111111111110011 >"
b11111111111111111111111111110011 d
b10000 V"
b111 R"
b0 J"
b10000 y"
b10000 %"
b10000 H
b10000 *"
b10000 ,"
b10000 N"
b11111111111111111111111111110011 U
b11111111111111111111111111110011 `
b11111111111111111111111111110011 0"
b1010 -
b1010 x
b1010 !"
b1010 2"
b1010 w"
b10100 >
b10100 5"
b10100 ="
b10010000000011 @
b10010000000011 -"
b10010000000011 g"
b101100 ;"
b1100 A
b1100 j"
b1100 l"
b1000000000000001110010011 B
b1000000000000001110010011 +"
b1000000000000001110010011 h"
b1000000000000001110010011 k"
b10011 K
b10011 W"
b10011 }"
b10011 e"
b110 N
b110 &"
b110 C"
b110 S"
b110 b"
b1111111000 X
b1111111000 f
b1111111000 K"
b1111111000 Z"
b11111111111111111111111111110011 W
b11111111111111111111111111110011 1"
b11111111111111111111111111110011 O"
b11111111111111111111111111110011 \"
b101 6
b101 B"
b101 q"
b101 ~"
b101 H"
b1100 <
b1100 s
b1100 w
b1100 ~
b1100 ?"
b1100 D"
b1100 m"
b100 /
b100 r"
b100 u"
b100 v"
b100 !#
b1010 2
b1010 4"
b1010 n"
b1010 s"
1.
b10100 ?
b10100 9"
b10100 :"
b10000 =
b10000 ."
b10000 6"
b10000 7"
b10000 i"
b100 $
1!
#225
0!
#250
b10000 Y
b10000 _
b10000 >"
b10000 d
1E
1o
1G
1m
b1100 -
b1100 x
b1100 !"
b1100 2"
b1100 w"
b10000 U
b10000 `
b10000 0"
b0 V"
b1000 R"
b10 J"
b0 y"
b11 j
b0 %"
b0 H
b0 *"
b0 ,"
b0 N"
b11000 >
b11000 5"
b11000 ="
b10000000010010010000011 @
b10000000010010010000011 -"
b10000000010010010000011 g"
b101 /
b101 r"
b101 u"
b101 v"
b101 !#
b1100 2
b1100 4"
b1100 n"
b1100 s"
b110 6
b110 B"
b110 q"
b110 ~"
b110 H"
b11111111111111111111111111110011 <
b11111111111111111111111111110011 s
b11111111111111111111111111110011 w
b11111111111111111111111111110011 ~
b11111111111111111111111111110011 ?"
b11111111111111111111111111110011 D"
b11111111111111111111111111110011 m"
b10000 K
b10000 W"
b10000 }"
b10000 e"
b111 N
b111 &"
b111 C"
b111 S"
b111 b"
b0 X
b0 f
b0 K"
b0 Z"
b10000 W
b10000 1"
b10000 O"
b10000 \"
b10000 ;"
b10000 A
b10000 j"
b10000 l"
b10010000000011 B
b10010000000011 +"
b10010000000011 h"
b10010000000011 k"
b11000 ?
b11000 9"
b11000 :"
b10100 =
b10100 ."
b10100 6"
b10100 7"
b10100 i"
b101 $
1!
#275
0!
#300
1b
b1010 C
b1010 X"
b1010 z"
b0 Y
b0 _
b0 >"
b0 d
b100 V"
b1001 R"
b100 y"
b100 %"
b100 H
b100 *"
b100 ,"
b100 N"
b0 U
b0 `
b0 0"
b11111111111111111111111111110011 -
b11111111111111111111111111110011 x
b11111111111111111111111111110011 !"
b11111111111111111111111111110011 2"
b11111111111111111111111111110011 w"
b11100 >
b11100 5"
b11100 ="
b100000000010010100000011 @
b100000000010010100000011 -"
b100000000010010100000011 g"
b11100 ;"
b10100 A
b10100 j"
b10100 l"
b10000000010010010000011 B
b10000000010010010000011 +"
b10000000010010010000011 h"
b10000000010010010000011 k"
b0 K
b0 W"
b0 }"
b0 e"
b1000 N
b1000 &"
b1000 C"
b1000 S"
b1000 b"
b10 X
b10 f
b10 K"
b10 Z"
b0 W
b0 1"
b0 O"
b0 \"
1T
1]"
1R
1_"
b111 6
b111 B"
b111 q"
b111 ~"
b111 H"
b10000 <
b10000 s
b10000 w
b10000 ~
b10000 ?"
b10000 D"
b10000 m"
b110 /
b110 r"
b110 u"
b110 v"
b110 !#
b11111111111111111111111111110011 2
b11111111111111111111111111110011 4"
b11111111111111111111111111110011 n"
b11111111111111111111111111110011 s"
b11100 ?
b11100 9"
b11100 :"
b11000 =
b11000 ."
b11000 6"
b11000 7"
b11000 i"
b110 $
1!
#325
0!
#350
0b
b100 Y
b100 _
b100 >"
b100 d
b0 C
b0 X"
b0 z"
b10000 -
b10000 x
b10000 !"
b10000 2"
b10000 w"
b101 :
b101 q
b101 o"
b100 U
b100 `
b100 0"
b1010 O
b1010 |
b1010 #"
b1010 /"
b1010 @"
b1000 V"
b1010 R"
b1000 y"
b1000 %"
b1000 H
b1000 *"
b1000 ,"
b1000 N"
b100000 >
b100000 5"
b100000 ="
b11000101010000000100011 @
b11000101010000000100011 -"
b11000101010000000100011 g"
b111 /
b111 r"
b111 u"
b111 v"
b111 !#
b10000 2
b10000 4"
b10000 n"
b10000 s"
b1000 6
b1000 B"
b1000 q"
b1000 ~"
b1000 H"
b0 <
b0 s
b0 w
b0 ~
b0 ?"
b0 D"
b0 m"
1;
17
1G"
b100 K
b100 W"
b100 }"
b100 e"
b1001 N
b1001 &"
b1001 C"
b1001 S"
b1001 b"
b100 W
b100 1"
b100 O"
b100 \"
b1010 P
b1010 ""
b1010 Q"
b1010 a"
b101000 ;"
b11000 A
b11000 j"
b11000 l"
b100000000010010100000011 B
b100000000010010100000011 +"
b100000000010010100000011 h"
b100000000010010100000011 k"
b100000 ?
b100000 9"
b100000 :"
b11100 =
b11100 ."
b11100 6"
b11100 7"
b11100 i"
b111 $
1!
#375
0!
#400
b1100 D
b1100 Y"
b1100 {"
0E
0o
1F
1n
0G
0m
0)
0p
b1000 Y
b1000 _
b1000 >"
b1000 d
b110 :
b110 q
b110 o"
b11111111111111111111111111110011 C
b11111111111111111111111111110011 X"
b11111111111111111111111111110011 z"
b110 V"
b101 T"
b0 R"
b110 y"
b101 x"
b100011 j
b110 %"
b101 $"
b0 H
b0 *"
b0 ,"
b0 N"
b1000 U
b1000 `
b1000 0"
b101 O
b101 |
b101 #"
b101 /"
b101 @"
b1 +
b1 }
b1 ##
b1 %#
b101 -
b101 x
b101 !"
b101 2"
b101 w"
b100100 >
b100100 5"
b100100 ="
b11100111000000100000110011 @
b11100111000000100000110011 -"
b11100111000000100000110011 g"
b11100 ;"
b11100 A
b11100 j"
b11100 l"
b11000101010000000100011 B
b11000101010000000100011 +"
b11000101010000000100011 h"
b11000101010000000100011 k"
b1000 K
b1000 W"
b1000 }"
b1000 e"
b1010 N
b1010 &"
b1010 C"
b1010 S"
b1010 b"
b1000 W
b1000 1"
b1000 O"
b1000 \"
b0 P
b0 ""
b0 Q"
b0 a"
b1001 6
b1001 B"
b1001 q"
b1001 ~"
b1001 H"
b1010 8
b1010 r
b1010 A"
b1010 E"
b100 <
b100 s
b100 w
b100 ~
b100 ?"
b100 D"
b100 m"
b1000 /
b1000 r"
b1000 u"
b1000 v"
b1000 !#
b101 1
b101 3"
b101 p"
b101 t"
b0 2
b0 4"
b0 n"
b0 s"
10
b100100 ?
b100100 9"
b100100 :"
b100000 =
b100000 ."
b100000 6"
b100000 7"
b100000 i"
b1000 $
1!
#425
0!
#450
b1010 :
b1010 q
b1010 o"
b11111111111111111111111111110011 O
b11111111111111111111111111110011 |
b11111111111111111111111111110011 #"
b11111111111111111111111111110011 /"
b11111111111111111111111111110011 @"
b1100 Y
b1100 _
b1100 >"
b1100 d
b11111111111111111111111111100111 C
b11111111111111111111111111100111 X"
b11111111111111111111111111100111 z"
b11111111111111111111111111101000 D
b11111111111111111111111111101000 Y"
b11111111111111111111111111101000 {"
0F
0n
1)
1p
0I
0l
b0 J
b0 i
b0 L"
b0 k
b110 -
b110 x
b110 !"
b110 2"
b110 w"
b0 +
b0 }
b0 ##
b0 %#
b0 U
b0 `
b0 0"
b1100 V
b1100 a
b1100 u
b1100 z
b11001 V"
b11000 T"
b10000 R"
b1000 J"
b11001 y"
b11000 x"
b110011 j
b11001 %"
b11000 $"
b101000 >
b101000 5"
b101000 ="
b11101111010000100010110011 @
b11101111010000100010110011 -"
b11101111010000100010110011 g"
b1001 /
b1001 r"
b1001 u"
b1001 v"
b1001 !#
b110 1
b110 3"
b110 p"
b110 t"
b100 2
b100 4"
b100 n"
b100 s"
b1010 6
b1010 B"
b1010 q"
b1010 ~"
b1010 H"
b101 8
b101 r
b101 A"
b101 E"
b1000 <
b1000 s
b1000 w
b1000 ~
b1000 ?"
b1000 D"
b1000 m"
b110 K
b110 W"
b110 }"
b110 e"
b101 L
b101 U"
b101 |"
b101 d"
b0 N
b0 &"
b0 C"
b0 S"
b0 b"
b0 W
b0 1"
b0 O"
b0 \"
b11111111111111111111111111110011 P
b11111111111111111111111111110011 ""
b11111111111111111111111111110011 Q"
b11111111111111111111111111110011 a"
b1100 Q
b1100 y
b1100 P"
b1100 `"
1S
1^"
0T
0]"
0R
0_"
0M
0c"
b100000 ;"
b100000 A
b100000 j"
b100000 l"
b11100111000000100000110011 B
b11100111000000100000110011 +"
b11100111000000100000110011 h"
b11100111000000100000110011 k"
b101000 ?
b101000 9"
b101000 :"
b100100 =
b100100 ."
b100100 6"
b100100 7"
b100100 i"
b1001 $
1!
#475
0!
#500
b11111111111111111111111111100101 C
b11111111111111111111111111100101 X"
b11111111111111111111111111100101 z"
b11111111111111111111111111100110 D
b11111111111111111111111111100110 Y"
b11111111111111111111111111100110 {"
b1001011000 Y
b1001011000 _
b1001011000 >"
b1001011000 d
b11011 V"
b11010 T"
b10001 R"
b11011 y"
b11010 x"
b11011 %"
b11010 $"
b11111111111111111111111111100111 U
b11111111111111111111111111100111 `
b11111111111111111111111111100111 0"
b100 \
b100 c
b100 e
b100 h
b11111111111111111111111111101000 V
b11111111111111111111111111101000 a
b11111111111111111111111111101000 u
b11111111111111111111111111101000 z
b11111111111111111111111111100111 O
b11111111111111111111111111100111 |
b11111111111111111111111111100111 #"
b11111111111111111111111111100111 /"
b11111111111111111111111111100111 @"
b0 :
b0 q
b0 o"
b1010 -
b1010 x
b1010 !"
b1010 2"
b1010 w"
b101100 >
b101100 5"
b101100 ="
b11110111100000100100110011 @
b11110111100000100100110011 -"
b11110111100000100100110011 g"
b100100 ;"
b100100 A
b100100 j"
b100100 l"
b11101111010000100010110011 B
b11101111010000100010110011 +"
b11101111010000100010110011 h"
b11101111010000100010110011 k"
b11001 K
b11001 W"
b11001 }"
b11001 e"
b11000 L
b11000 U"
b11000 |"
b11000 d"
b10000 N
b10000 &"
b10000 C"
b10000 S"
b10000 b"
b1000 X
b1000 f
b1000 K"
b1000 Z"
b11111111111111111111111111100111 P
b11111111111111111111111111100111 ""
b11111111111111111111111111100111 Q"
b11111111111111111111111111100111 a"
b11111111111111111111111111101000 Q
b11111111111111111111111111101000 y
b11111111111111111111111111101000 P"
b11111111111111111111111111101000 `"
0Z
b0 [
b0 g
b0 M"
b0 ["
0S
0^"
1M
1c"
b0 6
b0 B"
b0 q"
b0 ~"
b0 H"
b11111111111111111111111111110011 8
b11111111111111111111111111110011 r
b11111111111111111111111111110011 A"
b11111111111111111111111111110011 E"
b1100 <
b1100 s
b1100 w
b1100 ~
b1100 ?"
b1100 D"
b1100 m"
19
1F"
0;
07
0G"
05
0I"
b1010 /
b1010 r"
b1010 u"
b1010 v"
b1010 !#
b1010 1
b1010 3"
b1010 p"
b1010 t"
b1000 2
b1000 4"
b1000 n"
b1000 s"
b101100 ?
b101100 9"
b101100 :"
b101000 =
b101000 ."
b101000 6"
b101000 7"
b101000 i"
b1010 $
1!
#525
0!
