Lab1/codes/CPU.vcd
$date
    Dec  5, 2022  02:46:21
$end
$version
    TOOL:	ncsim	15.20-s084
$end
$timescale
    1 ns
$end

$scope module TestBench $end
$var reg       1 !    Clk  $end
$var reg       1 "    Start  $end
$var reg       1 #    Reset  $end
$var integer  32 $    i  $end
$var integer  32 %    outfile  $end
$var integer  32 &    counter  $end
$var integer  32 '    stall  $end
$var integer  32 (    flush  $end
$var parameter 32 )    num_cycles  $end

$scope module CPU $end
$var wire      1 *    clk_i  $end
$var wire      1 +    rst_i  $end
$var wire      1 ,    start_i  $end
$var wire     32 -    IF_pc_o [31:0] $end
$var wire     32 .    IF_pc_i [31:0] $end
$var wire     32 /    IF_instr_mem_o [31:0] $end
$var wire      1 0    ID_RegWrite_toRegIDEX  $end
$var wire      1 1    ID_MemtoReg_toRegIDEX  $end
$var wire      1 2    ID_MemRead_toRegIDEX  $end
$var wire      1 3    ID_MemWrite_toRegIDEX  $end
$var wire      2 4    ID_ALUOp_toRegIDEX [1:0] $end
$var wire      1 5    ID_ALUSrc_toRegIDEX  $end
$var wire     32 6    ID_instr_fromIF [31:0] $end
$var wire     32 7    ID_Rd1_toRegIDEX [31:0] $end
$var wire     32 8    ID_Rd2_toRegIDEX [31:0] $end
$var wire     32 9    ID_ImmGen_toRegIDEX [31:0] $end
$var wire      1 :    EX_RegWrite_toRegEXMEM  $end
$var wire      1 ;    EX_MemtoReg_toRegEXMEM  $end
$var wire      1 <    EX_MemRead_toRegEXMEM  $end
$var wire      1 =    EX_MemWrite_toRegEXMEM  $end
$var wire      2 >    EX_ALUOp [1:0] $end
$var wire      1 ?    EX_ALUSrc  $end
$var wire     32 @    EX_Rd1 [31:0] $end
$var wire     32 A    EX_Rd2 [31:0] $end
$var wire     32 B    EX_Imm [31:0] $end
$var wire     10 C    EX_ALUfunct [9:0] $end
$var wire     32 D    EX_MUXtoALU [31:0] $end
$var wire     32 E    EX_ALU_toRegEXMEM [31:0] $end
$var wire      3 F    EX_ALUCtrl_o [2:0] $end
$var wire      5 G    EX_RegDest [4:0] $end
$var wire      1 H    MEM_RegWrite_toRegMEMWB  $end
$var wire      1 I    MEM_MemtoReg_toRegMEMWB  $end
$var wire      1 J    MEM_MemRead  $end
$var wire      1 K    MEM_MemWrite  $end
$var wire     32 L    MEM_MemAddr_or_ALUResult [31:0] $end
$var wire     32 M    MEM_MemWriteData [31:0] $end
$var wire     32 N    MEM_MemReadData [31:0] $end
$var wire      5 O    MEM_RegDest [4:0] $end
$var wire      1 P    WB_RegWrite  $end
$var wire      1 Q    WB_MemtoReg  $end
$var wire     32 R    WB_ALUResult [31:0] $end
$var wire     32 S    WB_MemReadData [31:0] $end
$var wire     32 T    WB_RegWriteData [31:0] $end
$var wire      5 U    WB_RegDest [4:0] $end
$var wire      5 V    EX_Rs1_to_forwardUnit [4:0] $end
$var wire      5 W    EX_Rs2_to_forwardUnit [4:0] $end
$var wire      2 X    forwardA [1:0] $end
$var wire      2 Y    forwardB [1:0] $end
$var wire     32 Z    EX_MUX_to_Rd1 [31:0] $end
$var wire     32 [    EX_Rd2_MUX_to_MUX [31:0] $end
$var wire      1 \    PCWrite  $end
$var wire      1 ]    stall  $end
$var wire      1 ^    NoOp  $end
$var wire      1 _    Branching  $end
$var wire     32 `    IF_pc_mux_i [31:0] $end
$var wire     32 a    ID_pc [31:0] $end
$var reg       1 b    Flush  $end

$scope module PC_Branching $end
$var wire     32 .    data1_i [31:0] $end
$var wire     32 c    data2_i [31:0] $end
$var wire      1 d    select_i  $end
$var wire     32 `    data_o [31:0] $end
$upscope $end


$scope module Hazard_Detection $end
$var wire      1 <    EX_MemRead_i  $end
$var wire      5 G    EX_RegDest_i [4:0] $end
$var wire      5 e    ID_Rs1_i [4:0] $end
$var wire      5 f    ID_Rs2_i [4:0] $end
$var wire      1 ^    NoOp_o  $end
$var wire      1 ]    Stall_o  $end
$var wire      1 \    PCWrite_o  $end
$var reg       1 g    NoOp  $end
$var reg       1 h    stall  $end
$var reg       1 i    PCWrite  $end
$upscope $end


$scope module forwarding_unit $end
$var wire      5 V    EX_Rs1_i [4:0] $end
$var wire      5 W    EX_Rs2_i [4:0] $end
$var wire      5 U    WB_RegDest_i [4:0] $end
$var wire      1 P    WB_RegWrite_i  $end
$var wire      5 O    MEM_Rd_i [4:0] $end
$var wire      1 H    MEM_RegWrite_i  $end
$var wire      2 X    forwardA_o [1:0] $end
$var wire      2 Y    forwardB_o [1:0] $end
$var reg       2 j    forwardA [1:0] $end
$var reg       2 k    forwardB [1:0] $end
$upscope $end


$scope module EX_Rd1_to_ALU $end
$var wire     32 @    data00_i [31:0] $end
$var wire     32 T    data01_i [31:0] $end
$var wire     32 L    data10_i [31:0] $end
$var wire     32 l    data11_i [31:0] $end
$var wire      2 X    select_i [1:0] $end
$var wire     32 Z    data_o [31:0] $end
$var reg      32 m    data [31:0] $end
$upscope $end


$scope module EX_Rd2_to_ALU $end
$var wire     32 A    data00_i [31:0] $end
$var wire     32 T    data01_i [31:0] $end
$var wire     32 L    data10_i [31:0] $end
$var wire     32 n    data11_i [31:0] $end
$var wire      2 Y    select_i [1:0] $end
$var wire     32 [    data_o [31:0] $end
$var reg      32 o    data [31:0] $end
$upscope $end


$scope module PC_Adder $end
$var wire     32 -    data1_in [31:0] $end
$var wire     32 p    data2_in [31:0] $end
$var wire     32 .    data_o [31:0] $end
$upscope $end


$scope module ALUCtrl $end
$var wire     10 C    funct_i [9:0] $end
$var wire      2 >    ALUOp_i [1:0] $end
$var wire      3 F    ALUCtrl_o [2:0] $end
$var parameter 32 q    R_TYPE  $end
$var parameter 32 r    I_TYPE  $end
$var parameter 10 s    AND_FUNC  $end
$var parameter 10 t    XOR_FUNC  $end
$var parameter 10 u    SLL_FUNC  $end
$var parameter 10 v    ADD_FUNC  $end
$var parameter 10 w    SUB_FUNC  $end
$var parameter 10 x    MUL_FUNC  $end
$var parameter  3 y    ADDI_FUNC  $end
$var parameter  3 z    SRAI_FUNC  $end
$var parameter  3 {    LW_SW_FUNC  $end
$var parameter 32 |    ADD  $end
$var parameter 32 }    XOR  $end
$var parameter 32 ~    SLL  $end
$var parameter 32 !!   SUB  $end
$var parameter 32 "!   MUL  $end
$var parameter 32 #!   SRA  $end
$var parameter 32 $!   AND  $end
$var reg       3 %!   ALUCtrl [2:0] $end
$upscope $end


$scope module ALU $end
$var wire     32 Z    data1_i [31:0] $end
$var wire     32 D    data2_i [31:0] $end
$var wire      3 F    ALUCtrl_i [2:0] $end
$var wire     32 E    data_o [31:0] $end
$var wire      1 &!   Zero_o  $end
$var reg      32 '!   data [31:0] $end
$var parameter 32 (!   ADD  $end
$var parameter 32 )!   XOR  $end
$var parameter 32 *!   SLL  $end
$var parameter 32 +!   SUB  $end
$var parameter 32 ,!   MUL  $end
$var parameter 32 -!   SRA  $end
$var parameter 32 .!   AND  $end
$upscope $end


$scope module Control $end
$var wire      7 /!   Op_i [6:0] $end
$var wire      1 ^    NoOp_i  $end
$var wire      2 4    ALUOp_o [1:0] $end
$var wire      1 5    ALUSrc_o  $end
$var wire      1 0    RegWrite_o  $end
$var wire      1 2    MemRead_o  $end
$var wire      1 3    MemWrite_o  $end
$var wire      1 1    MemtoReg_o  $end
$var wire      1 _    Branch_o  $end
$var parameter  7 0!   R_TYPE  $end
$var parameter  7 1!   I_TYPE  $end
$var parameter  7 2!   LW  $end
$var parameter  7 3!   SW  $end
$var parameter  7 4!   BEQ  $end
$var reg       2 5!   ALUOp [1:0] $end
$var reg       1 6!   ALUSrc  $end
$var reg       1 7!   RegWrite  $end
$var reg       1 8!   MemRead  $end
$var reg       1 9!   MemWrite  $end
$var reg       1 :!   MemtoReg  $end
$var reg       1 ;!   Branching  $end
$upscope $end


$scope module Data_Memory $end
$var wire      1 *    clk_i  $end
$var wire     32 L    addr_i [31:0] $end
$var wire      1 J    MemRead_i  $end
$var wire      1 K    MemWrite_i  $end
$var wire     32 M    data_i [31:0] $end
$var wire     32 N    data_o [31:0] $end
$upscope $end


$scope module ImmGen $end
$var wire     32 6    data_i [31:0] $end
$var wire     32 9    data_o [31:0] $end
$var reg      32 <!   data [31:0] $end
$upscope $end


$scope module Instruction_Memory $end
$var wire     32 -    addr_i [31:0] $end
$var wire     32 /    instr_o [31:0] $end
$upscope $end


$scope module MUXtoALU $end
$var wire     32 [    data1_i [31:0] $end
$var wire     32 B    data2_i [31:0] $end
$var wire      1 ?    select_i  $end
$var wire     32 D    data_o [31:0] $end
$upscope $end


$scope module MUXtoReg $end
$var wire     32 R    data1_i [31:0] $end
$var wire     32 S    data2_i [31:0] $end
$var wire      1 Q    select_i  $end
$var wire     32 T    data_o [31:0] $end
$upscope $end


$scope module PC $end
$var wire      1 *    clk_i  $end
$var wire      1 +    rst_i  $end
$var wire      1 ,    start_i  $end
$var wire      1 \    PCWrite_i  $end
$var wire     32 `    pc_i [31:0] $end
$var reg      32 =!   pc_o [31:0] $end
$upscope $end


$scope module Registers $end
$var wire      1 *    clk_i  $end
$var wire      5 >!   RS1addr_i [4:0] $end
$var wire      5 ?!   RS2addr_i [4:0] $end
$var wire      5 U    RDaddr_i [4:0] $end
$var wire     32 T    RDdata_i [31:0] $end
$var wire      1 P    RegWrite_i  $end
$var wire     32 7    RS1data_o [31:0] $end
$var wire     32 8    RS2data_o [31:0] $end
$upscope $end


$scope module RegIFID $end
$var wire      1 *    clk  $end
$var wire      1 ]    stall  $end
$var wire      1 @!   flush  $end
$var wire     32 .    pc_i [31:0] $end
$var wire     32 /    instr_i [31:0] $end
$var wire     32 6    instr_o [31:0] $end
$var wire     32 a    pc_o [31:0] $end
$var reg      32 A!   instr [31:0] $end
$var reg      32 B!   pc [31:0] $end
$upscope $end


$scope module RegIDEX $end
$var wire      1 *    clk  $end
$var wire      1 0    RegWrite_i  $end
$var wire      1 1    MemtoReg_i  $end
$var wire      1 2    MemRead_i  $end
$var wire      1 3    MemWrite_i  $end
$var wire      2 4    ALUOp_i [1:0] $end
$var wire      1 5    ALUSrc_i  $end
$var wire     32 7    Rd1_i [31:0] $end
$var wire     32 8    Rd2_i [31:0] $end
$var wire     32 9    Imm_i [31:0] $end
$var wire     10 C!   ALUCtrl_i [9:0] $end
$var wire      5 D!   RegDest_i [4:0] $end
$var wire      5 E!   Rs1_i [4:0] $end
$var wire      5 F!   Rs2_i [4:0] $end
$var wire      1 :    RegWrite_o  $end
$var wire      1 ;    MemtoReg_o  $end
$var wire      1 <    MemRead_o  $end
$var wire      1 =    MemWrite_o  $end
$var wire      2 >    ALUOp_o [1:0] $end
$var wire      1 ?    ALUSrc_o  $end
$var wire     32 @    Rd1_o [31:0] $end
$var wire     32 A    Rd2_o [31:0] $end
$var wire     32 B    Imm_o [31:0] $end
$var wire     10 C    ALUCtrl_o [9:0] $end
$var wire      5 G    RegDest_o [4:0] $end
$var wire      5 V    Rs1_o [4:0] $end
$var wire      5 W    Rs2_o [4:0] $end
$var reg       1 G!   RegWrite  $end
$var reg       1 H!   MemtoReg  $end
$var reg       1 I!   MemRead  $end
$var reg       1 J!   MemWrite  $end
$var reg       2 K!   ALUOp [1:0] $end
$var reg       1 L!   ALUSrc  $end
$var reg      32 M!   Rd1 [31:0] $end
$var reg      32 N!   Rd2 [31:0] $end
$var reg      32 O!   Imm [31:0] $end
$var reg      10 P!   ALUCtrl [9:0] $end
$var reg       5 Q!   RegDest [4:0] $end
$var reg       5 R!   Rs1 [4:0] $end
$var reg       5 S!   Rs2 [4:0] $end
$upscope $end


$scope module RegEXMEM $end
$var wire      1 *    clk  $end
$var wire      1 :    RegWrite_i  $end
$var wire      1 ;    MemtoReg_i  $end
$var wire      1 <    MemRead_i  $end
$var wire      1 =    MemWrite_i  $end
$var wire     32 E    ALUResult_i [31:0] $end
$var wire     32 [    MemWrData_i [31:0] $end
$var wire      5 G    RegDest_i [4:0] $end
$var wire      1 H    RegWrite_o  $end
$var wire      1 I    MemtoReg_o  $end
$var wire      1 J    MemRead_o  $end
$var wire      1 K    MemWrite_o  $end
$var wire     32 L    ALUResult_o [31:0] $end
$var wire     32 M    MemWrData_o [31:0] $end
$var wire      5 O    RegDest_o [4:0] $end
$var reg       1 T!   RegWrite  $end
$var reg       1 U!   MemtoReg  $end
$var reg       1 V!   MemRead  $end
$var reg       1 W!   MemWrite  $end
$var reg      32 X!   ALUResult [31:0] $end
$var reg      32 Y!   MemWrData [31:0] $end
$var reg       5 Z!   RegDest [4:0] $end
$upscope $end


$scope module RegMEMWB $end
$var wire      1 *    clk  $end
$var wire      1 H    RegWrite_i  $end
$var wire      1 I    MemtoReg_i  $end
$var wire     32 L    ALUResult_i [31:0] $end
$var wire     32 N    MemData_i [31:0] $end
$var wire      5 O    RegDest_i [4:0] $end
$var wire      1 P    RegWrite_o  $end
$var wire      1 Q    MemtoReg_o  $end
$var wire     32 R    ALUResult_o [31:0] $end
$var wire     32 S    MemData_o [31:0] $end
$var wire      5 U    RegDest_o [4:0] $end
$var reg       1 [!   RegWrite  $end
$var reg       1 \!   MemtoReg  $end
$var reg      32 ]!   ALUResult [31:0] $end
$var reg      32 ^!   MemData [31:0] $end
$var reg       5 _!   RegDest [4:0] $end
$upscope $end

$upscope $end

$upscope $end

$enddefinitions $end
$dumpvars
b1100011 4!
b100011 3!
b11 2!
b10011 1!
b110011 0!
b110 .!
b101 -!
b100 ,!
b11 +!
b10 *!
b1 )!
b0 (!
b110 $!
b101 #!
b100 "!
b11 !!
b10 ~
b1 }
b0 |
b10 {
b101 z
b0 y
b1000 x
b100000000 w
b0 v
b1 u
b100 t
b111 s
b1 r
b0 q
b1000000 )
1!
0"
1#
b100000 $
b11 %
b0 &
b0 '
b0 (
1*
1+
0,
b0 -
b100 .
b101000000000001000010011 /
00
01
02
03
b0 4
05
b0 6
b0 7
b0 8
b0 9
x:
x;
x<
x=
bx >
x?
bx @
bx A
bx B
bx C
bx D
bx E
bx F
bx G
xH
xI
xJ
xK
bx L
bx M
bx N
bx O
xP
xQ
bx R
bx S
bx T
bx U
bx V
bx W
bx X
bx Y
bx Z
bx [
1\
0]
0^
0_
b100 `
bx a
0b
bx c
0d
b0 e
b0 f
0g
0h
1i
bx j
bx k
bz l
bx m
bz n
bx o
b100 p
bx %!
x&!
bx '!
b0 /!
b0 5!
06!
07!
08!
09!
0:!
0;!
b0 <!
b0 =!
b0 >!
b0 ?!
0@!
b0 A!
bx B!
b0 C!
b0 D!
b0 E!
b0 F!
xG!
xH!
xI!
xJ!
bx K!
xL!
bx M!
bx N!
bx O!
bx P!
bx Q!
bx R!
bx S!
xT!
xU!
xV!
xW!
bx X!
bx Y!
bx Z!
x[!
x\!
bx ]!
bx ^!
bx _!
$end
#12
0#
1"
1,
0+
#25
0!
0*
#50
1!
b1 &
1*
b100 =!
0G!
0H!
0I!
0J!
b0 K!
0L!
b0 M!
b0 N!
b0 O!
b0 P!
b0 Q!
b0 R!
b0 S!
b101000000000001000010011 A!
b100 B!
b100 a
b101000000000001000010011 6
b0 W
b0 V
b0 G
b0 C
b0 B
b0 A
b0 @
0?
b0 >
0=
0<
0;
0:
b100 -
b1010 <!
b0 j
b0 k
b0 %!
b1000 .
b110000000000001010010011 /
b0 F
b0 Y
b0 X
b1010 F!
b1010 ?!
b1010 f
b10011 /!
b100 D!
b1010 9
b100 c
b0 o
b0 m
b1 5!
17!
16!
b1110 c
15
b1 4
b0 Z
b0 [
b1000 `
10
b0 D
b0 '!
1&!
b0 E
#75
0!
0*
#100
1!
b10 &
1*
b1000 =!
0T!
0U!
0V!
0W!
b0 X!
b0 Y!
b0 Z!
1G!
b1 K!
1L!
b1010 O!
b100 Q!
b1010 S!
b110000000000001010010011 A!
b1000 B!
b1000 a
b110000000000001010010011 6
b1010 W
b100 G
b1010 B
1?
b1 >
1:
b0 O
b0 M
b0 L
0K
0J
0I
0H
b1000 -
b1100 <!
b1100 .
b11111111001100000000001100010011 /
b0 N
b1010 D
b1100 F!
b1100 ?!
b1100 f
b101 D!
b1100 9
b10010 c
b1010 '!
b10100 c
0&!
b1010 E
b1100 `
#125
0!
0*
#150
1!
b11 &
1*
b1100 =!
0[!
0\!
b0 ]!
b0 ^!
b0 _!
1T!
b1010 X!
b100 Z!
b1100 O!
b101 Q!
b1100 S!
b11111111001100000000001100010011 A!
b1100 B!
b1100 a
b11111111001100000000001100010011 6
b1100 W
b101 G
b1100 B
b100 O
b1010 L
1H
b0 U
b0 S
b0 R
0Q
0P
b1100 -
b11111111111111111111111111110011 <!
b10000 .
b1000000000000001110010011 /
b0 T
b1100 D
b10011 F!
b10011 ?!
b10011 f
b1111111000 C!
b110 D!
b11111111111111111111111111110011 9
b11000 c
b1100 '!
b11111111111111111111111111111111 c
b1100 E
b10000 `
#175
0!
0*
#200
1!
b100 &
1*
b10000 =!
1[!
b1010 ]!
b100 _!
b1100 X!
b101 Z!
b11111111111111111111111111110011 O!
b1111111000 P!
b110 Q!
b10011 S!
b1000000000000001110010011 A!
b10000 B!
b10000 a
b1000000000000001110010011 6
b10011 W
b110 G
b1111111000 C
b11111111111111111111111111110011 B
b101 O
b1100 L
b100 U
b1010 R
1P
b10000 -
b10000 <!
b10100 .
b10010000000011 /
b1010 T
b11111111111111111111111111110011 D
b10000 F!
b10000 ?!
b10000 f
b0 C!
b111 D!
b10000 9
b11 c
b11111111111111111111111111110011 '!
b100000 c
b11111111111111111111111111110011 E
b10100 `
#225
0!
0*
#250
1!
b101 &
1*
b10100 =!
b1100 ]!
b101 _!
b11111111111111111111111111110011 X!
b110 Z!
b10000 O!
b0 P!
b111 Q!
b10000 S!
b10010000000011 A!
b10100 B!
b10100 a
b10010000000011 6
b10000 W
b111 G
b0 C
b10000 B
b110 O
b11111111111111111111111111110011 L
b101 U
b1100 R
b10100 -
b0 <!
b11000 .
b10000000010010010000011 /
b1100 T
b10000 D
b0 F!
b0 ?!
b0 f
b11 /!
b10 C!
b1000 D!
b0 9
b100100 c
b10000 '!
18!
1:!
b10100 c
11
12
b10000 E
b11000 `
#275
0!
0*
#300
1!
b110 &
1*
b11000 =!
b11111111111111111111111111110011 ]!
b110 _!
b10000 X!
b111 Z!
1H!
1I!
b0 O!
b10 P!
b1000 Q!
b0 S!
b10000000010010010000011 A!
b11000 B!
b11000 a
b10000000010010010000011 6
b0 W
b1000 G
b10 C
b0 B
1<
1;
b111 O
b10000 L
b110 U
b11111111111111111111111111110011 R
b11000 -
b100 <!
b11100 .
b100000000010010100000011 /
b11111111111111111111111111110011 T
b0 D
b100 F!
b100 ?!
b100 f
b1001 D!
b100 9
b11000 c
b0 '!
b11100 c
1&!
b0 E
b1010 8
b11100 `
#325
0!
0*
#350
1!
b111 &
1*
b11100 =!
b10000 ]!
b111 _!
1U!
1V!
b0 X!
b1000 Z!
b1010 N!
b100 O!
b1001 Q!
b100 S!
b100000000010010100000011 A!
b11100 B!
b11100 a
b100000000010010100000011 6
b100 W
b1001 G
b100 B
b1010 A
b1000 O
b0 L
1J
1I
b111 U
b10000 R
b11100 -
b1000 <!
b1010 o
b100000 .
b11000101010000000100011 /
b10000 T
b101 N
b1010 [
b100 D
b1000 F!
b1000 ?!
b1000 f
b1010 D!
b1000 9
b100000 c
b100 '!
b100100 c
0&!
b100 E
b0 8
b100000 `
#375
0!
0*
#400
1!
b1000 &
1*
b100000 =!
1\!
b0 ]!
b101 ^!
b1000 _!
b100 X!
b1010 Y!
b1001 Z!
b0 N!
b1000 O!
b1010 Q!
b1000 S!
b11000101010000000100011 A!
b100000 B!
b100000 a
b11000101010000000100011 6
b1000 W
b1010 G
b1000 B
b0 A
b1001 O
b1010 M
b100 L
b1000 U
b101 S
b0 R
1Q
b100000 -
b0 <!
b1 k
b0 o
b100100 .
b11100111000000100000110011 /
b101 T
b10000 8
b110 N
b0 [
b1000 D
b1 Y
b101 E!
b101 >!
b101 e
b110 F!
b110 ?!
b110 f
b100011 /!
b0 D!
b0 9
b101000 c
b101 o
b1000 '!
07!
08!
19!
0:!
b100000 c
01
13
02
b1000 E
b101 [
b1100 7
b11111111111111111111111111110011 8
b100100 `
00
#425
0!
0*
#450
1!
b1001 &
1*
b100100 =!
b100 ]!
b110 ^!
b1001 _!
b1000 X!
b101 Y!
b1010 Z!
0G!
0H!
0I!
1J!
b1100 M!
b11111111111111111111111111110011 N!
b0 O!
b0 Q!
b101 R!
b110 S!
b11100111000000100000110011 A!
b100100 B!
b100100 a
b11100111000000100000110011 6
b110 W
b101 V
b0 G
b0 B
b11111111111111111111111111110011 A
b1100 @
1=
0<
0;
0:
b1010 O
b101 M
b1000 L
b1001 U
b110 S
b100 R
b100100 -
b0 k
b1100 m
b101000 .
b11101111010000100010110011 /
b110 T
b1010 N
b1100 Z
b0 D
b0 Y
b11000 E!
b11000 >!
b11000 e
b11001 F!
b11001 ?!
b11001 f
b110011 /!
b1000 C!
b10000 D!
b100100 c
b11111111111111111111111111110011 o
b1100 '!
b0 5!
06!
17!
09!
03
05
b0 4
b1100 E
b11111111111111111111111111110011 [
b11111111111111111111111111101000 7
b11111111111111111111111111100111 8
b101000 `
10
#475
0!
0*
#500
1!
b1010 &
1*
b101000 =!
b1000 ]!
b1010 ^!
b1010 _!
0T!
0U!
0V!
1W!
b1100 X!
b11111111111111111111111111110011 Y!
b0 Z!
1G!
0J!
b0 K!
0L!
b11111111111111111111111111101000 M!
b11111111111111111111111111100111 N!
b1000 P!
b10000 Q!
b11000 R!
b11001 S!
b11101111010000100010110011 A!
b101000 B!
b101000 a
b11101111010000100010110011 6
b11001 W
b11000 V
b10000 G
b1000 C
b11111111111111111111111111100111 A
b11111111111111111111111111101000 @
0?
b0 >
0=
1:
b0 O
b11111111111111111111111111110011 M
b1100 L
1K
0J
0I
0H
b1010 U
b1010 S
b1000 R
b101000 -
b100 %!
b11111111111111111111111111100111 o
b11111111111111111111111111101000 m
b101100 .
b11110111100000100100110011 /
b1010 T
b0 N
b11111111111111111111111111110011 D
b11111111111111111111111111101000 Z
b11111111111111111111111111100111 [
b100 F
b11010 E!
b11010 >!
b11010 e
b11011 F!
b11011 ?!
b11011 f
b10001 D!
b101000 c
b100111000 '!
b11111111111111111111111111100111 D
b100111000 E
b11111111111111111111111111100110 7
b11111111111111111111111111100101 8
b101100 `
b1001011000 '!
b1001011000 E
#525
0!
0*
#550
1!
b1011 &
1*
b101100 =!
0[!
0\!
b1100 ]!
b0 ^!
b0 _!
1T!
0W!
b1001011000 X!
b11111111111111111111111111100111 Y!
b10000 Z!
b11111111111111111111111111100110 M!
b11111111111111111111111111100101 N!
b10001 Q!
b11010 R!
b11011 S!
b11110111100000100100110011 A!
b101100 B!
b101100 a
b11110111100000100100110011 6
b11011 W
b11010 V
b10001 G
b11111111111111111111111111100101 A
b11111111111111111111111111100110 @
b10000 O
b11111111111111111111111111100111 M
b1001011000 L
0K
1H
b0 U
b0 S
b1100 R
0Q
0P
b101100 -
b11111111111111111111111111100101 o
b11111111111111111111111111100110 m
b110000 .
b11111111110000100110110011 /
b1100 T
b11111111111111111111111111100110 Z
b11111111111111111111111111100101 [
b11100 E!
b11100 >!
b11100 e
b11101 F!
b11101 ?!
b11101 f
b10010 D!
b101100 c
b1010001010 '!
b11111111111111111111111111100101 D
b1010001010 E
b111000 7
b111010 8
b110000 `
b1010111110 '!
b1010111110 E
#575
0!
0*
#600
1!
b1100 &
1*
b110000 =!
1[!
b1001011000 ]!
b10000 _!
b1010111110 X!
b11111111111111111111111111100101 Y!
b10001 Z!
b111000 M!
b111010 N!
b10010 Q!
b11100 R!
b11101 S!
b11111111110000100110110011 A!
b110000 B!
b110000 a
b11111111110000100110110011 6
b11101 W
b11100 V
b10010 G
b111010 A
b111000 @
b10001 O
b11111111111111111111111111100101 M
b1010111110 L
b10000 U
b1001011000 R
1P
b110000 -
b111010 o
b111000 m
b110100 .
b1000000111010000000100011 /
b1001011000 T
b111000 Z
b111010 [
b11110 E!
b11110 >!
b11110 e
b11111 F!
b11111 ?!
b11111 f
b10011 D!
b110000 c
b11111111111111111111101000011000 '!
b111010 D
b11111111111111111111101000011000 E
b111100 7
b111110 8
b110100 `
b110010110000 '!
b110010110000 E
#625
0!
0*
#650
1!
b1101 &
1*
b110100 =!
b1010111110 ]!
b10001 _!
b110010110000 X!
b111010 Y!
b10010 Z!
b111100 M!
b111110 N!
b10011 Q!
b11110 R!
b11111 S!
b1000000111010000000100011 A!
b110100 B!
b110100 a
b1000000111010000000100011 6
b11111 W
b11110 V
b10011 G
b111110 A
b111100 @
b10010 O
b111010 M
b110010110000 L
b10001 U
b1010111110 R
b110100 -
b111110 o
b111100 m
b111000 .
b1000100000010001000100011 /
b1010111110 T
b111100 Z
b111110 [
b111 E!
b111 >!
b111 e
b10000 F!
b10000 ?!
b10000 f
b100011 /!
b10 C!
b0 D!
b110100 c
b110110011000 '!
b1 5!
07!
16!
19!
13
15
b1 4
b111110 D
b110110011000 E
b10000 7
b1001011000 8
b111000 `
00
b111010001000 '!
b111010001000 E
#675
0!
0*
#700
1!
b1110 &
1*
b111000 =!
b110010110000 ]!
b10010 _!
b111010001000 X!
b111110 Y!
b10011 Z!
0G!
1J!
b1 K!
1L!
b10000 M!
b1001011000 N!
b10 P!
b0 Q!
b111 R!
b10000 S!
b1000100000010001000100011 A!
b111000 B!
b111000 a
b1000100000010001000100011 6
b10000 W
b111 V
b0 G
b10 C
b1001011000 A
b10000 @
1?
b1 >
1=
0:
b10011 O
b111110 M
b111010001000 L
b10010 U
b110010110000 R
b111000 -
b100 <!
b0 %!
b1001011000 o
b10000 m
b111100 .
b0 /
b110010110000 T
b0 D
b10000 Z
b1001011000 [
b0 F
b0 E!
b0 >!
b0 e
b10001 F!
b10001 ?!
b10001 f
b100 D!
b100 9
b111000 c
b10000 '!
b111100 c
b10000 E
b0 7
b1010111110 8
b111100 `
#725
0!
0*
#750
1!
b1111 &
1*
b111100 =!
b111010001000 ]!
b10011 _!
0T!
1W!
b10000 X!
b1001011000 Y!
b0 Z!
b0 M!
b1010111110 N!
b100 O!
b100 Q!
b0 R!
b10001 S!
b0 A!
b111100 B!
b111100 a
b0 6
b10001 W
b0 V
b100 G
b100 B
b1010111110 A
b0 @
b0 O
b1001011000 M
b10000 L
1K
0H
b10011 U
b111010001000 R
b111100 -
b0 <!
b1010111110 o
b0 m
b1000000 .
b111010001000 T
b0 Z
b1010111110 [
b100 D
b0 F!
b0 ?!
b0 f
b0 /!
b0 C!
b0 D!
b0 9
b1000000 c
b100 '!
b0 5!
06!
09!
b111100 c
03
05
b0 4
b100 E
b0 8
b1000000 `
#775
0!
0*
#800
1!
b10000 &
1*
b1000000 =!
0[!
b10000 ]!
b0 _!
b100 X!
b1010111110 Y!
b100 Z!
0J!
b0 K!
0L!
b0 N!
b0 O!
b0 P!
b0 Q!
b0 S!
b1000000 B!
b1000000 a
b0 W
b0 G
b0 C
b0 B
b0 A
0?
b0 >
0=
b100 O
b1010111110 M
b100 L
b0 U
b10000 R
0P
b1000000 -
b0 o
b1000100 .
b10000 T
b0 [
b1010111110 D
b1000000 c
b1010111110 '!
b1010111110 E
b0 D
b1000100 `
b0 '!
1&!
b0 E
#825
0!
0*
#850
1!
b10001 &
1*
b1000100 =!
b100 ]!
b100 _!
0W!
b0 X!
b0 Y!
b0 Z!
b1000100 B!
b1000100 a
b0 O
b0 M
b0 L
0K
b100 U
b100 R
b1000100 -
b1001000 .
b100 T
b1000100 c
b1001000 `
#875
0!
0*
#900
1!
b10010 &
1*
b1001000 =!
b0 ]!
b0 _!
b1001000 B!
b1001000 a
b0 U
b0 R
b1001000 -
b1001100 .
b0 T
b1001000 c
b1001100 `
#925
0!
0*
#950
1!
b10011 &
1*
b1001100 =!
b1001100 B!
b1001100 a
b1001100 -
b1010000 .
b1001100 c
b1010000 `
#975
0!
0*
#1000
1!
b10100 &
1*
b1010000 =!
b1010000 B!
b1010000 a
b1010000 -
b1010100 .
b1010000 c
b1010100 `
#1025
0!
0*
#1050
1!
b10101 &
1*
b1010100 =!
b1010100 B!
b1010100 a
b1010100 -
b1011000 .
b1010100 c
b1011000 `
#1075
0!
0*
#1100
1!
b10110 &
1*
b1011000 =!
b1011000 B!
b1011000 a
b1011000 -
b1011100 .
b1011000 c
b1011100 `
#1125
0!
0*
#1150
1!
b10111 &
1*
b1011100 =!
b1011100 B!
b1011100 a
b1011100 -
b1100000 .
b1011100 c
b1100000 `
#1175
0!
0*
#1200
1!
b11000 &
1*
b1100000 =!
b1100000 B!
b1100000 a
b1100000 -
b1100100 .
b1100000 c
b1100100 `
#1225
0!
0*
#1250
1!
b11001 &
1*
b1100100 =!
b1100100 B!
b1100100 a
b1100100 -
b1101000 .
b1100100 c
b1101000 `
#1275
0!
0*
#1300
1!
b11010 &
1*
b1101000 =!
b1101000 B!
b1101000 a
b1101000 -
b1101100 .
b1101000 c
b1101100 `
#1325
0!
0*
#1350
1!
b11011 &
1*
b1101100 =!
b1101100 B!
b1101100 a
b1101100 -
b1110000 .
b1101100 c
b1110000 `
#1375
0!
0*
#1400
1!
b11100 &
1*
b1110000 =!
b1110000 B!
b1110000 a
b1110000 -
b1110100 .
b1110000 c
b1110100 `
#1425
0!
0*
#1450
1!
b11101 &
1*
b1110100 =!
b1110100 B!
b1110100 a
b1110100 -
b1111000 .
b1110100 c
b1111000 `
#1475
0!
0*
#1500
1!
b11110 &
1*
b1111000 =!
b1111000 B!
b1111000 a
b1111000 -
b1111100 .
b1111000 c
b1111100 `
#1525
0!
0*
#1550
1!
b11111 &
1*
b1111100 =!
b1111100 B!
b1111100 a
b1111100 -
b10000000 .
b1111100 c
b10000000 `
#1575
0!
0*
