Lab1/codes/ncverilog.log
ncverilog: 15.20-s084: (c) Copyright 1995-2020 Cadence Design Systems, Inc.
TOOL:	ncverilog	15.20-s084: Started on Dec 05, 2022 at 02:46:17 CST
ncverilog
	+access+rw
	Adder.v
	ALU_Control.v
	ALU.v
	Control.v
	CPU.v
	Data_Memory.v
	Forwarding_Unit.v
	Hazard_Detection.v
	ImmGen.v
	Instruction_Memory.v
	MUX32_2.v
	MUX32.v
	PC.v
	RegEXMEM.v
	RegIDEX.v
	RegIFID.v
	Registers.v
	RegMEMWB.v
	testbench.v
Recompiling... reason: file './Control.v' is newer than expected.
	expected: Mon Dec  5 01:14:09 2022
	actual:   Mon Dec  5 02:46:08 2022
file: Control.v
	module worklib.Control:v
		errors: 0, warnings: 0
		Caching library 'worklib' ....... Done
	Elaborating the design hierarchy:
	Building instance overlay tables: .................... Done
	Generating native compiled code:
		worklib.Control:v <0x1bfd058e>
			streams:   1, words:  5316
		worklib.TestBench:v <0x42be2d06>
			streams:   6, words: 24490
	Building instance specific data structures.
	Loading native compiled code:     .................... Done
	Design hierarchy summary:
		              Instances  Unique
		Modules:             22      19
		Registers:           57      56
		Scalar wires:        28       -
		Vectored wires:      46       -
		Always blocks:       18      17
		Initial blocks:       1       1
		Cont. assignments:    9      51
		Pseudo assignments:  11      11
	Writing initial simulation snapshot: worklib.TestBench:v
Loading snapshot worklib.TestBench:v .................... Done
*Verdi* Loading libsscore_ius152.so
ncsim> source /usr/cad/cadence/INCISIV/cur/tools/inca/files/ncsimrc
ncsim> run
cycle =           0, Start = 1, Stall = 0, Flush = 0
PC =          0
Registers
x0 =           0, x8  =           0, x16 =           0, x24 =         -24
x1 =           0, x9  =           0, x17 =           0, x25 =         -25
x2 =           0, x10 =           0, x18 =           0, x26 =         -26
x3 =           0, x11 =           0, x19 =           0, x27 =         -27
x4 =           0, x12 =           0, x20 =           0, x28 =          56
x5 =           0, x13 =           0, x21 =           0, x29 =          58
x6 =           0, x14 =           0, x22 =           0, x30 =          60
x7 =           0, x15 =           0, x23 =           0, x31 =          62
Data Memory: 0x00 =          5
Data Memory: 0x04 =          6
Data Memory: 0x08 =         10
Data Memory: 0x0C =         18
Data Memory: 0x10 =         29
Data Memory: 0x14 =          0
Data Memory: 0x18 =          0
Data Memory: 0x1C =          0


cycle =           1, Start = 1, Stall = 0, Flush = 0
PC =          4
Registers
x0 =           0, x8  =           0, x16 =           0, x24 =         -24
x1 =           0, x9  =           0, x17 =           0, x25 =         -25
x2 =           0, x10 =           0, x18 =           0, x26 =         -26
x3 =           0, x11 =           0, x19 =           0, x27 =         -27
x4 =           0, x12 =           0, x20 =           0, x28 =          56
x5 =           0, x13 =           0, x21 =           0, x29 =          58
x6 =           0, x14 =           0, x22 =           0, x30 =          60
x7 =           0, x15 =           0, x23 =           0, x31 =          62
Data Memory: 0x00 =          5
Data Memory: 0x04 =          6
Data Memory: 0x08 =         10
Data Memory: 0x0C =         18
Data Memory: 0x10 =         29
Data Memory: 0x14 =          0
Data Memory: 0x18 =          0
Data Memory: 0x1C =          0


cycle =           2, Start = 1, Stall = 0, Flush = 0
PC =          8
Registers
x0 =           0, x8  =           0, x16 =           0, x24 =         -24
x1 =           0, x9  =           0, x17 =           0, x25 =         -25
x2 =           0, x10 =           0, x18 =           0, x26 =         -26
x3 =           0, x11 =           0, x19 =           0, x27 =         -27
x4 =           0, x12 =           0, x20 =           0, x28 =          56
x5 =           0, x13 =           0, x21 =           0, x29 =          58
x6 =           0, x14 =           0, x22 =           0, x30 =          60
x7 =           0, x15 =           0, x23 =           0, x31 =          62
Data Memory: 0x00 =          5
Data Memory: 0x04 =          6
Data Memory: 0x08 =         10
Data Memory: 0x0C =         18
Data Memory: 0x10 =         29
Data Memory: 0x14 =          0
Data Memory: 0x18 =          0
Data Memory: 0x1C =          0


cycle =           3, Start = 1, Stall = 0, Flush = 0
PC =         12
Registers
x0 =           0, x8  =           0, x16 =           0, x24 =         -24
x1 =           0, x9  =           0, x17 =           0, x25 =         -25
x2 =           0, x10 =           0, x18 =           0, x26 =         -26
x3 =           0, x11 =           0, x19 =           0, x27 =         -27
x4 =           0, x12 =           0, x20 =           0, x28 =          56
x5 =           0, x13 =           0, x21 =           0, x29 =          58
x6 =           0, x14 =           0, x22 =           0, x30 =          60
x7 =           0, x15 =           0, x23 =           0, x31 =          62
Data Memory: 0x00 =          5
Data Memory: 0x04 =          6
Data Memory: 0x08 =         10
Data Memory: 0x0C =         18
Data Memory: 0x10 =         29
Data Memory: 0x14 =          0
Data Memory: 0x18 =          0
Data Memory: 0x1C =          0


cycle =           4, Start = 1, Stall = 0, Flush = 0
PC =         16
Registers
x0 =           0, x8  =           0, x16 =           0, x24 =         -24
x1 =           0, x9  =           0, x17 =           0, x25 =         -25
x2 =           0, x10 =           0, x18 =           0, x26 =         -26
x3 =           0, x11 =           0, x19 =           0, x27 =         -27
x4 =           0, x12 =           0, x20 =           0, x28 =          56
x5 =           0, x13 =           0, x21 =           0, x29 =          58
x6 =           0, x14 =           0, x22 =           0, x30 =          60
x7 =           0, x15 =           0, x23 =           0, x31 =          62
Data Memory: 0x00 =          5
Data Memory: 0x04 =          6
Data Memory: 0x08 =         10
Data Memory: 0x0C =         18
Data Memory: 0x10 =         29
Data Memory: 0x14 =          0
Data Memory: 0x18 =          0
Data Memory: 0x1C =          0


cycle =           5, Start = 1, Stall = 0, Flush = 0
PC =         20
Registers
x0 =           0, x8  =           0, x16 =           0, x24 =         -24
x1 =           0, x9  =           0, x17 =           0, x25 =         -25
x2 =           0, x10 =           0, x18 =           0, x26 =         -26
x3 =           0, x11 =           0, x19 =           0, x27 =         -27
x4 =          10, x12 =           0, x20 =           0, x28 =          56
x5 =           0, x13 =           0, x21 =           0, x29 =          58
x6 =           0, x14 =           0, x22 =           0, x30 =          60
x7 =           0, x15 =           0, x23 =           0, x31 =          62
Data Memory: 0x00 =          5
Data Memory: 0x04 =          6
Data Memory: 0x08 =         10
Data Memory: 0x0C =         18
Data Memory: 0x10 =         29
Data Memory: 0x14 =          0
Data Memory: 0x18 =          0
Data Memory: 0x1C =          0


cycle =           6, Start = 1, Stall = 0, Flush = 0
PC =         24
Registers
x0 =           0, x8  =           0, x16 =           0, x24 =         -24
x1 =           0, x9  =           0, x17 =           0, x25 =         -25
x2 =           0, x10 =           0, x18 =           0, x26 =         -26
x3 =           0, x11 =           0, x19 =           0, x27 =         -27
x4 =          10, x12 =           0, x20 =           0, x28 =          56
x5 =          12, x13 =           0, x21 =           0, x29 =          58
x6 =           0, x14 =           0, x22 =           0, x30 =          60
x7 =           0, x15 =           0, x23 =           0, x31 =          62
Data Memory: 0x00 =          5
Data Memory: 0x04 =          6
Data Memory: 0x08 =         10
Data Memory: 0x0C =         18
Data Memory: 0x10 =         29
Data Memory: 0x14 =          0
Data Memory: 0x18 =          0
Data Memory: 0x1C =          0


cycle =           7, Start = 1, Stall = 0, Flush = 0
PC =         28
Registers
x0 =           0, x8  =           0, x16 =           0, x24 =         -24
x1 =           0, x9  =           0, x17 =           0, x25 =         -25
x2 =           0, x10 =           0, x18 =           0, x26 =         -26
x3 =           0, x11 =           0, x19 =           0, x27 =         -27
x4 =          10, x12 =           0, x20 =           0, x28 =          56
x5 =          12, x13 =           0, x21 =           0, x29 =          58
x6 =         -13, x14 =           0, x22 =           0, x30 =          60
x7 =           0, x15 =           0, x23 =           0, x31 =          62
Data Memory: 0x00 =          5
Data Memory: 0x04 =          6
Data Memory: 0x08 =         10
Data Memory: 0x0C =         18
Data Memory: 0x10 =         29
Data Memory: 0x14 =          0
Data Memory: 0x18 =          0
Data Memory: 0x1C =          0


cycle =           8, Start = 1, Stall = 0, Flush = 0
PC =         32
Registers
x0 =           0, x8  =           0, x16 =           0, x24 =         -24
x1 =           0, x9  =           0, x17 =           0, x25 =         -25
x2 =           0, x10 =           0, x18 =           0, x26 =         -26
x3 =           0, x11 =           0, x19 =           0, x27 =         -27
x4 =          10, x12 =           0, x20 =           0, x28 =          56
x5 =          12, x13 =           0, x21 =           0, x29 =          58
x6 =         -13, x14 =           0, x22 =           0, x30 =          60
x7 =          16, x15 =           0, x23 =           0, x31 =          62
Data Memory: 0x00 =          5
Data Memory: 0x04 =          6
Data Memory: 0x08 =         10
Data Memory: 0x0C =         18
Data Memory: 0x10 =         29
Data Memory: 0x14 =          0
Data Memory: 0x18 =          0
Data Memory: 0x1C =          0


cycle =           9, Start = 1, Stall = 0, Flush = 0
PC =         36
Registers
x0 =           0, x8  =           5, x16 =           0, x24 =         -24
x1 =           0, x9  =           0, x17 =           0, x25 =         -25
x2 =           0, x10 =           0, x18 =           0, x26 =         -26
x3 =           0, x11 =           0, x19 =           0, x27 =         -27
x4 =          10, x12 =           0, x20 =           0, x28 =          56
x5 =          12, x13 =           0, x21 =           0, x29 =          58
x6 =         -13, x14 =           0, x22 =           0, x30 =          60
x7 =          16, x15 =           0, x23 =           0, x31 =          62
Data Memory: 0x00 =          5
Data Memory: 0x04 =          6
Data Memory: 0x08 =         10
Data Memory: 0x0C =         18
Data Memory: 0x10 =         29
Data Memory: 0x14 =          0
Data Memory: 0x18 =          0
Data Memory: 0x1C =          0


cycle =          10, Start = 1, Stall = 0, Flush = 0
PC =         40
Registers
x0 =           0, x8  =           5, x16 =           0, x24 =         -24
x1 =           0, x9  =           6, x17 =           0, x25 =         -25
x2 =           0, x10 =           0, x18 =           0, x26 =         -26
x3 =           0, x11 =           0, x19 =           0, x27 =         -27
x4 =          10, x12 =           0, x20 =           0, x28 =          56
x5 =          12, x13 =           0, x21 =           0, x29 =          58
x6 =         -13, x14 =           0, x22 =           0, x30 =          60
x7 =          16, x15 =           0, x23 =           0, x31 =          62
Data Memory: 0x00 =          5
Data Memory: 0x04 =          6
Data Memory: 0x08 =         10
Data Memory: 0x0C =         18
Data Memory: 0x10 =         29
Data Memory: 0x14 =          0
Data Memory: 0x18 =          0
Data Memory: 0x1C =          0


cycle =          11, Start = 1, Stall = 0, Flush = 0
PC =         44
Registers
x0 =           0, x8  =           5, x16 =           0, x24 =         -24
x1 =           0, x9  =           6, x17 =           0, x25 =         -25
x2 =           0, x10 =          10, x18 =           0, x26 =         -26
x3 =           0, x11 =           0, x19 =           0, x27 =         -27
x4 =          10, x12 =           0, x20 =           0, x28 =          56
x5 =          12, x13 =           0, x21 =           0, x29 =          58
x6 =         -13, x14 =           0, x22 =           0, x30 =          60
x7 =          16, x15 =           0, x23 =           0, x31 =          62
Data Memory: 0x00 =          5
Data Memory: 0x04 =          6
Data Memory: 0x08 =         10
Data Memory: 0x0C =        -13
Data Memory: 0x10 =         29
Data Memory: 0x14 =          0
Data Memory: 0x18 =          0
Data Memory: 0x1C =          0


cycle =          12, Start = 1, Stall = 0, Flush = 0
PC =         48
Registers
x0 =           0, x8  =           5, x16 =           0, x24 =         -24
x1 =           0, x9  =           6, x17 =           0, x25 =         -25
x2 =           0, x10 =          10, x18 =           0, x26 =         -26
x3 =           0, x11 =           0, x19 =           0, x27 =         -27
x4 =          10, x12 =           0, x20 =           0, x28 =          56
x5 =          12, x13 =           0, x21 =           0, x29 =          58
x6 =         -13, x14 =           0, x22 =           0, x30 =          60
x7 =          16, x15 =           0, x23 =           0, x31 =          62
Data Memory: 0x00 =          5
Data Memory: 0x04 =          6
Data Memory: 0x08 =         10
Data Memory: 0x0C =        -13
Data Memory: 0x10 =         29
Data Memory: 0x14 =          0
Data Memory: 0x18 =          0
Data Memory: 0x1C =          0


cycle =          13, Start = 1, Stall = 0, Flush = 0
PC =         52
Registers
x0 =           0, x8  =           5, x16 =         600, x24 =         -24
x1 =           0, x9  =           6, x17 =           0, x25 =         -25
x2 =           0, x10 =          10, x18 =           0, x26 =         -26
x3 =           0, x11 =           0, x19 =           0, x27 =         -27
x4 =          10, x12 =           0, x20 =           0, x28 =          56
x5 =          12, x13 =           0, x21 =           0, x29 =          58
x6 =         -13, x14 =           0, x22 =           0, x30 =          60
x7 =          16, x15 =           0, x23 =           0, x31 =          62
Data Memory: 0x00 =          5
Data Memory: 0x04 =          6
Data Memory: 0x08 =         10
Data Memory: 0x0C =        -13
Data Memory: 0x10 =         29
Data Memory: 0x14 =          0
Data Memory: 0x18 =          0
Data Memory: 0x1C =          0


cycle =          14, Start = 1, Stall = 0, Flush = 0
PC =         56
Registers
x0 =           0, x8  =           5, x16 =         600, x24 =         -24
x1 =           0, x9  =           6, x17 =         702, x25 =         -25
x2 =           0, x10 =          10, x18 =           0, x26 =         -26
x3 =           0, x11 =           0, x19 =           0, x27 =         -27
x4 =          10, x12 =           0, x20 =           0, x28 =          56
x5 =          12, x13 =           0, x21 =           0, x29 =          58
x6 =         -13, x14 =           0, x22 =           0, x30 =          60
x7 =          16, x15 =           0, x23 =           0, x31 =          62
Data Memory: 0x00 =          5
Data Memory: 0x04 =          6
Data Memory: 0x08 =         10
Data Memory: 0x0C =        -13
Data Memory: 0x10 =         29
Data Memory: 0x14 =          0
Data Memory: 0x18 =          0
Data Memory: 0x1C =          0


cycle =          15, Start = 1, Stall = 0, Flush = 0
PC =         60
Registers
x0 =           0, x8  =           5, x16 =         600, x24 =         -24
x1 =           0, x9  =           6, x17 =         702, x25 =         -25
x2 =           0, x10 =          10, x18 =        3248, x26 =         -26
x3 =           0, x11 =           0, x19 =           0, x27 =         -27
x4 =          10, x12 =           0, x20 =           0, x28 =          56
x5 =          12, x13 =           0, x21 =           0, x29 =          58
x6 =         -13, x14 =           0, x22 =           0, x30 =          60
x7 =          16, x15 =           0, x23 =           0, x31 =          62
Data Memory: 0x00 =          5
Data Memory: 0x04 =          6
Data Memory: 0x08 =         10
Data Memory: 0x0C =        -13
Data Memory: 0x10 =         29
Data Memory: 0x14 =          0
Data Memory: 0x18 =          0
Data Memory: 0x1C =          0


cycle =          16, Start = 1, Stall = 0, Flush = 0
PC =         64
Registers
x0 =           0, x8  =           5, x16 =         600, x24 =         -24
x1 =           0, x9  =           6, x17 =         702, x25 =         -25
x2 =           0, x10 =          10, x18 =        3248, x26 =         -26
x3 =           0, x11 =           0, x19 =        3720, x27 =         -27
x4 =          10, x12 =           0, x20 =           0, x28 =          56
x5 =          12, x13 =           0, x21 =           0, x29 =          58
x6 =         -13, x14 =           0, x22 =           0, x30 =          60
x7 =          16, x15 =           0, x23 =           0, x31 =          62
Data Memory: 0x00 =          5
Data Memory: 0x04 =          6
Data Memory: 0x08 =         10
Data Memory: 0x0C =        -13
Data Memory: 0x10 =        600
Data Memory: 0x14 =          0
Data Memory: 0x18 =          0
Data Memory: 0x1C =          0


cycle =          17, Start = 1, Stall = 0, Flush = 0
PC =         68
Registers
x0 =           0, x8  =           5, x16 =         600, x24 =         -24
x1 =           0, x9  =           6, x17 =         702, x25 =         -25
x2 =           0, x10 =          10, x18 =        3248, x26 =         -26
x3 =           0, x11 =           0, x19 =        3720, x27 =         -27
x4 =          10, x12 =           0, x20 =           0, x28 =          56
x5 =          12, x13 =           0, x21 =           0, x29 =          58
x6 =         -13, x14 =           0, x22 =           0, x30 =          60
x7 =          16, x15 =           0, x23 =           0, x31 =          62
Data Memory: 0x00 =          5
Data Memory: 0x04 =        702
Data Memory: 0x08 =         10
Data Memory: 0x0C =        -13
Data Memory: 0x10 =        600
Data Memory: 0x14 =          0
Data Memory: 0x18 =          0
Data Memory: 0x1C =          0


cycle =          18, Start = 1, Stall = 0, Flush = 0
PC =         72
Registers
x0 =           0, x8  =           5, x16 =         600, x24 =         -24
x1 =           0, x9  =           6, x17 =         702, x25 =         -25
x2 =           0, x10 =          10, x18 =        3248, x26 =         -26
x3 =           0, x11 =           0, x19 =        3720, x27 =         -27
x4 =          10, x12 =           0, x20 =           0, x28 =          56
x5 =          12, x13 =           0, x21 =           0, x29 =          58
x6 =         -13, x14 =           0, x22 =           0, x30 =          60
x7 =          16, x15 =           0, x23 =           0, x31 =          62
Data Memory: 0x00 =          5
Data Memory: 0x04 =        702
Data Memory: 0x08 =         10
Data Memory: 0x0C =        -13
Data Memory: 0x10 =        600
Data Memory: 0x14 =          0
Data Memory: 0x18 =          0
Data Memory: 0x1C =          0


cycle =          19, Start = 1, Stall = 0, Flush = 0
PC =         76
Registers
x0 =           0, x8  =           5, x16 =         600, x24 =         -24
x1 =           0, x9  =           6, x17 =         702, x25 =         -25
x2 =           0, x10 =          10, x18 =        3248, x26 =         -26
x3 =           0, x11 =           0, x19 =        3720, x27 =         -27
x4 =          10, x12 =           0, x20 =           0, x28 =          56
x5 =          12, x13 =           0, x21 =           0, x29 =          58
x6 =         -13, x14 =           0, x22 =           0, x30 =          60
x7 =          16, x15 =           0, x23 =           0, x31 =          62
Data Memory: 0x00 =          5
Data Memory: 0x04 =        702
Data Memory: 0x08 =         10
Data Memory: 0x0C =        -13
Data Memory: 0x10 =        600
Data Memory: 0x14 =          0
Data Memory: 0x18 =          0
Data Memory: 0x1C =          0


cycle =          20, Start = 1, Stall = 0, Flush = 0
PC =         80
Registers
x0 =           0, x8  =           5, x16 =         600, x24 =         -24
x1 =           0, x9  =           6, x17 =         702, x25 =         -25
x2 =           0, x10 =          10, x18 =        3248, x26 =         -26
x3 =           0, x11 =           0, x19 =        3720, x27 =         -27
x4 =          10, x12 =           0, x20 =           0, x28 =          56
x5 =          12, x13 =           0, x21 =           0, x29 =          58
x6 =         -13, x14 =           0, x22 =           0, x30 =          60
x7 =          16, x15 =           0, x23 =           0, x31 =          62
Data Memory: 0x00 =          5
Data Memory: 0x04 =        702
Data Memory: 0x08 =         10
Data Memory: 0x0C =        -13
Data Memory: 0x10 =        600
Data Memory: 0x14 =          0
Data Memory: 0x18 =          0
Data Memory: 0x1C =          0


cycle =          21, Start = 1, Stall = 0, Flush = 0
PC =         84
Registers
x0 =           0, x8  =           5, x16 =         600, x24 =         -24
x1 =           0, x9  =           6, x17 =         702, x25 =         -25
x2 =           0, x10 =          10, x18 =        3248, x26 =         -26
x3 =           0, x11 =           0, x19 =        3720, x27 =         -27
x4 =          10, x12 =           0, x20 =           0, x28 =          56
x5 =          12, x13 =           0, x21 =           0, x29 =          58
x6 =         -13, x14 =           0, x22 =           0, x30 =          60
x7 =          16, x15 =           0, x23 =           0, x31 =          62
Data Memory: 0x00 =          5
Data Memory: 0x04 =        702
Data Memory: 0x08 =         10
Data Memory: 0x0C =        -13
Data Memory: 0x10 =        600
Data Memory: 0x14 =          0
Data Memory: 0x18 =          0
Data Memory: 0x1C =          0


cycle =          22, Start = 1, Stall = 0, Flush = 0
PC =         88
Registers
x0 =           0, x8  =           5, x16 =         600, x24 =         -24
x1 =           0, x9  =           6, x17 =         702, x25 =         -25
x2 =           0, x10 =          10, x18 =        3248, x26 =         -26
x3 =           0, x11 =           0, x19 =        3720, x27 =         -27
x4 =          10, x12 =           0, x20 =           0, x28 =          56
x5 =          12, x13 =           0, x21 =           0, x29 =          58
x6 =         -13, x14 =           0, x22 =           0, x30 =          60
x7 =          16, x15 =           0, x23 =           0, x31 =          62
Data Memory: 0x00 =          5
Data Memory: 0x04 =        702
Data Memory: 0x08 =         10
Data Memory: 0x0C =        -13
Data Memory: 0x10 =        600
Data Memory: 0x14 =          0
Data Memory: 0x18 =          0
Data Memory: 0x1C =          0


cycle =          23, Start = 1, Stall = 0, Flush = 0
PC =         92
Registers
x0 =           0, x8  =           5, x16 =         600, x24 =         -24
x1 =           0, x9  =           6, x17 =         702, x25 =         -25
x2 =           0, x10 =          10, x18 =        3248, x26 =         -26
x3 =           0, x11 =           0, x19 =        3720, x27 =         -27
x4 =          10, x12 =           0, x20 =           0, x28 =          56
x5 =          12, x13 =           0, x21 =           0, x29 =          58
x6 =         -13, x14 =           0, x22 =           0, x30 =          60
x7 =          16, x15 =           0, x23 =           0, x31 =          62
Data Memory: 0x00 =          5
Data Memory: 0x04 =        702
Data Memory: 0x08 =         10
Data Memory: 0x0C =        -13
Data Memory: 0x10 =        600
Data Memory: 0x14 =          0
Data Memory: 0x18 =          0
Data Memory: 0x1C =          0


cycle =          24, Start = 1, Stall = 0, Flush = 0
PC =         96
Registers
x0 =           0, x8  =           5, x16 =         600, x24 =         -24
x1 =           0, x9  =           6, x17 =         702, x25 =         -25
x2 =           0, x10 =          10, x18 =        3248, x26 =         -26
x3 =           0, x11 =           0, x19 =        3720, x27 =         -27
x4 =          10, x12 =           0, x20 =           0, x28 =          56
x5 =          12, x13 =           0, x21 =           0, x29 =          58
x6 =         -13, x14 =           0, x22 =           0, x30 =          60
x7 =          16, x15 =           0, x23 =           0, x31 =          62
Data Memory: 0x00 =          5
Data Memory: 0x04 =        702
Data Memory: 0x08 =         10
Data Memory: 0x0C =        -13
Data Memory: 0x10 =        600
Data Memory: 0x14 =          0
Data Memory: 0x18 =          0
Data Memory: 0x1C =          0


cycle =          25, Start = 1, Stall = 0, Flush = 0
PC =        100
Registers
x0 =           0, x8  =           5, x16 =         600, x24 =         -24
x1 =           0, x9  =           6, x17 =         702, x25 =         -25
x2 =           0, x10 =          10, x18 =        3248, x26 =         -26
x3 =           0, x11 =           0, x19 =        3720, x27 =         -27
x4 =          10, x12 =           0, x20 =           0, x28 =          56
x5 =          12, x13 =           0, x21 =           0, x29 =          58
x6 =         -13, x14 =           0, x22 =           0, x30 =          60
x7 =          16, x15 =           0, x23 =           0, x31 =          62
Data Memory: 0x00 =          5
Data Memory: 0x04 =        702
Data Memory: 0x08 =         10
Data Memory: 0x0C =        -13
Data Memory: 0x10 =        600
Data Memory: 0x14 =          0
Data Memory: 0x18 =          0
Data Memory: 0x1C =          0


cycle =          26, Start = 1, Stall = 0, Flush = 0
PC =        104
Registers
x0 =           0, x8  =           5, x16 =         600, x24 =         -24
x1 =           0, x9  =           6, x17 =         702, x25 =         -25
x2 =           0, x10 =          10, x18 =        3248, x26 =         -26
x3 =           0, x11 =           0, x19 =        3720, x27 =         -27
x4 =          10, x12 =           0, x20 =           0, x28 =          56
x5 =          12, x13 =           0, x21 =           0, x29 =          58
x6 =         -13, x14 =           0, x22 =           0, x30 =          60
x7 =          16, x15 =           0, x23 =           0, x31 =          62
Data Memory: 0x00 =          5
Data Memory: 0x04 =        702
Data Memory: 0x08 =         10
Data Memory: 0x0C =        -13
Data Memory: 0x10 =        600
Data Memory: 0x14 =          0
Data Memory: 0x18 =          0
Data Memory: 0x1C =          0


cycle =          27, Start = 1, Stall = 0, Flush = 0
PC =        108
Registers
x0 =           0, x8  =           5, x16 =         600, x24 =         -24
x1 =           0, x9  =           6, x17 =         702, x25 =         -25
x2 =           0, x10 =          10, x18 =        3248, x26 =         -26
x3 =           0, x11 =           0, x19 =        3720, x27 =         -27
x4 =          10, x12 =           0, x20 =           0, x28 =          56
x5 =          12, x13 =           0, x21 =           0, x29 =          58
x6 =         -13, x14 =           0, x22 =           0, x30 =          60
x7 =          16, x15 =           0, x23 =           0, x31 =          62
Data Memory: 0x00 =          5
Data Memory: 0x04 =        702
Data Memory: 0x08 =         10
Data Memory: 0x0C =        -13
Data Memory: 0x10 =        600
Data Memory: 0x14 =          0
Data Memory: 0x18 =          0
Data Memory: 0x1C =          0


cycle =          28, Start = 1, Stall = 0, Flush = 0
PC =        112
Registers
x0 =           0, x8  =           5, x16 =         600, x24 =         -24
x1 =           0, x9  =           6, x17 =         702, x25 =         -25
x2 =           0, x10 =          10, x18 =        3248, x26 =         -26
x3 =           0, x11 =           0, x19 =        3720, x27 =         -27
x4 =          10, x12 =           0, x20 =           0, x28 =          56
x5 =          12, x13 =           0, x21 =           0, x29 =          58
x6 =         -13, x14 =           0, x22 =           0, x30 =          60
x7 =          16, x15 =           0, x23 =           0, x31 =          62
Data Memory: 0x00 =          5
Data Memory: 0x04 =        702
Data Memory: 0x08 =         10
Data Memory: 0x0C =        -13
Data Memory: 0x10 =        600
Data Memory: 0x14 =          0
Data Memory: 0x18 =          0
Data Memory: 0x1C =          0


cycle =          29, Start = 1, Stall = 0, Flush = 0
PC =        116
Registers
x0 =           0, x8  =           5, x16 =         600, x24 =         -24
x1 =           0, x9  =           6, x17 =         702, x25 =         -25
x2 =           0, x10 =          10, x18 =        3248, x26 =         -26
x3 =           0, x11 =           0, x19 =        3720, x27 =         -27
x4 =          10, x12 =           0, x20 =           0, x28 =          56
x5 =          12, x13 =           0, x21 =           0, x29 =          58
x6 =         -13, x14 =           0, x22 =           0, x30 =          60
x7 =          16, x15 =           0, x23 =           0, x31 =          62
Data Memory: 0x00 =          5
Data Memory: 0x04 =        702
Data Memory: 0x08 =         10
Data Memory: 0x0C =        -13
Data Memory: 0x10 =        600
Data Memory: 0x14 =          0
Data Memory: 0x18 =          0
Data Memory: 0x1C =          0


cycle =          30, Start = 1, Stall = 0, Flush = 0
PC =        120
Registers
x0 =           0, x8  =           5, x16 =         600, x24 =         -24
x1 =           0, x9  =           6, x17 =         702, x25 =         -25
x2 =           0, x10 =          10, x18 =        3248, x26 =         -26
x3 =           0, x11 =           0, x19 =        3720, x27 =         -27
x4 =          10, x12 =           0, x20 =           0, x28 =          56
x5 =          12, x13 =           0, x21 =           0, x29 =          58
x6 =         -13, x14 =           0, x22 =           0, x30 =          60
x7 =          16, x15 =           0, x23 =           0, x31 =          62
Data Memory: 0x00 =          5
Data Memory: 0x04 =        702
Data Memory: 0x08 =         10
Data Memory: 0x0C =        -13
Data Memory: 0x10 =        600
Data Memory: 0x14 =          0
Data Memory: 0x18 =          0
Data Memory: 0x1C =          0


cycle =          31, Start = 1, Stall = 0, Flush = 0
PC =        124
Registers
x0 =           0, x8  =           5, x16 =         600, x24 =         -24
x1 =           0, x9  =           6, x17 =         702, x25 =         -25
x2 =           0, x10 =          10, x18 =        3248, x26 =         -26
x3 =           0, x11 =           0, x19 =        3720, x27 =         -27
x4 =          10, x12 =           0, x20 =           0, x28 =          56
x5 =          12, x13 =           0, x21 =           0, x29 =          58
x6 =         -13, x14 =           0, x22 =           0, x30 =          60
x7 =          16, x15 =           0, x23 =           0, x31 =          62
Data Memory: 0x00 =          5
Data Memory: 0x04 =        702
Data Memory: 0x08 =         10
Data Memory: 0x0C =        -13
Data Memory: 0x10 =        600
Data Memory: 0x14 =          0
Data Memory: 0x18 =          0
Data Memory: 0x1C =          0


cycle =          32, Start = 1, Stall = 0, Flush = 0
PC =        128
Registers
x0 =           0, x8  =           5, x16 =         600, x24 =         -24
x1 =           0, x9  =           6, x17 =         702, x25 =         -25
x2 =           0, x10 =          10, x18 =        3248, x26 =         -26
x3 =           0, x11 =           0, x19 =        3720, x27 =         -27
x4 =          10, x12 =           0, x20 =           0, x28 =          56
x5 =          12, x13 =           0, x21 =           0, x29 =          58
x6 =         -13, x14 =           0, x22 =           0, x30 =          60
x7 =          16, x15 =           0, x23 =           0, x31 =          62
Data Memory: 0x00 =          5
Data Memory: 0x04 =        702
Data Memory: 0x08 =         10
Data Memory: 0x0C =        -13
Data Memory: 0x10 =        600
Data Memory: 0x14 =          0
Data Memory: 0x18 =          0
Data Memory: 0x1C =          0


cycle =          33, Start = 1, Stall = 0, Flush = 0
PC =        132
Registers
x0 =           0, x8  =           5, x16 =         600, x24 =         -24
x1 =           0, x9  =           6, x17 =         702, x25 =         -25
x2 =           0, x10 =          10, x18 =        3248, x26 =         -26
x3 =           0, x11 =           0, x19 =        3720, x27 =         -27
x4 =          10, x12 =           0, x20 =           0, x28 =          56
x5 =          12, x13 =           0, x21 =           0, x29 =          58
x6 =         -13, x14 =           0, x22 =           0, x30 =          60
x7 =          16, x15 =           0, x23 =           0, x31 =          62
Data Memory: 0x00 =          5
Data Memory: 0x04 =        702
Data Memory: 0x08 =         10
Data Memory: 0x0C =        -13
Data Memory: 0x10 =        600
Data Memory: 0x14 =          0
Data Memory: 0x18 =          0
Data Memory: 0x1C =          0


cycle =          34, Start = 1, Stall = 0, Flush = 0
PC =        136
Registers
x0 =           0, x8  =           5, x16 =         600, x24 =         -24
x1 =           0, x9  =           6, x17 =         702, x25 =         -25
x2 =           0, x10 =          10, x18 =        3248, x26 =         -26
x3 =           0, x11 =           0, x19 =        3720, x27 =         -27
x4 =          10, x12 =           0, x20 =           0, x28 =          56
x5 =          12, x13 =           0, x21 =           0, x29 =          58
x6 =         -13, x14 =           0, x22 =           0, x30 =          60
x7 =          16, x15 =           0, x23 =           0, x31 =          62
Data Memory: 0x00 =          5
Data Memory: 0x04 =        702
Data Memory: 0x08 =         10
Data Memory: 0x0C =        -13
Data Memory: 0x10 =        600
Data Memory: 0x14 =          0
Data Memory: 0x18 =          0
Data Memory: 0x1C =          0


cycle =          35, Start = 1, Stall = 0, Flush = 0
PC =        140
Registers
x0 =           0, x8  =           5, x16 =         600, x24 =         -24
x1 =           0, x9  =           6, x17 =         702, x25 =         -25
x2 =           0, x10 =          10, x18 =        3248, x26 =         -26
x3 =           0, x11 =           0, x19 =        3720, x27 =         -27
x4 =          10, x12 =           0, x20 =           0, x28 =          56
x5 =          12, x13 =           0, x21 =           0, x29 =          58
x6 =         -13, x14 =           0, x22 =           0, x30 =          60
x7 =          16, x15 =           0, x23 =           0, x31 =          62
Data Memory: 0x00 =          5
Data Memory: 0x04 =        702
Data Memory: 0x08 =         10
Data Memory: 0x0C =        -13
Data Memory: 0x10 =        600
Data Memory: 0x14 =          0
Data Memory: 0x18 =          0
Data Memory: 0x1C =          0


cycle =          36, Start = 1, Stall = 0, Flush = 0
PC =        144
Registers
x0 =           0, x8  =           5, x16 =         600, x24 =         -24
x1 =           0, x9  =           6, x17 =         702, x25 =         -25
x2 =           0, x10 =          10, x18 =        3248, x26 =         -26
x3 =           0, x11 =           0, x19 =        3720, x27 =         -27
x4 =          10, x12 =           0, x20 =           0, x28 =          56
x5 =          12, x13 =           0, x21 =           0, x29 =          58
x6 =         -13, x14 =           0, x22 =           0, x30 =          60
