Lab2/codes/CPU.vcd
$date
	Fri Dec 30 22:48:52 2022
$end
$version
	Icarus Verilog
$end
$timescale
	1s
$end
$scope module IF_ID $end
$var wire 32 ! PC_i [31:0] $end
$var wire 1 " clk_i $end
$var wire 1 # flush_i $end
$var wire 32 $ inst_i [31:0] $end
$var wire 1 % rst_i $end
$var wire 1 & stall_i $end
$var reg 32 ' PC_o [31:0] $end
$var reg 32 ( inst_o [31:0] $end
$upscope $end
$scope module TestBench $end
$var reg 1 ) Clk $end
$var reg 1 * Reset $end
$var integer 32 + counter [31:0] $end
$var integer 32 , i [31:0] $end
$var integer 32 - outfile [31:0] $end
$scope module CPU $end
$var wire 1 . Branching $end
$var wire 1 / EX_BEQ_flush $end
$var wire 1 0 ID_RegWrite_toRegIDEX $end
$var wire 1 ) clk_i $end
$var wire 1 * rst_i $end
$var wire 1 1 start_i $end
$var wire 1 2 stall $end
$var wire 1 3 predictor $end
$var wire 2 4 forwardB [1:0] $end
$var wire 2 5 forwardA [1:0] $end
$var wire 32 6 WB_RegWriteData [31:0] $end
$var wire 1 7 WB_RegWrite $end
$var wire 5 8 WB_RegDest [4:0] $end
$var wire 1 9 WB_MemtoReg $end
$var wire 32 : WB_MemReadData [31:0] $end
$var wire 32 ; WB_ALUResult [31:0] $end
$var wire 32 < PC_ID_BranchingTarget [31:0] $end
$var wire 1 = PCWrite $end
$var wire 1 > NoOp $end
$var wire 1 ? MEM_RegWrite_toRegMEMWB $end
$var wire 5 @ MEM_RegDest [4:0] $end
$var wire 1 A MEM_MemtoReg_toRegMEMWB $end
$var wire 32 B MEM_MemWriteData [31:0] $end
$var wire 1 C MEM_MemWrite $end
$var wire 32 D MEM_MemReadData [31:0] $end
$var wire 1 E MEM_MemRead $end
$var wire 32 F MEM_MemAddr_or_ALUResult [31:0] $end
$var wire 32 G IF_pc_o [31:0] $end
$var wire 32 H IF_pc_mux_i [31:0] $end
$var wire 32 I IF_pc_i [31:0] $end
$var wire 32 J IF_instr_mem_o [31:0] $end
$var wire 32 K ID_pc [31:0] $end
$var wire 32 L ID_instr_fromIF [31:0] $end
$var wire 32 M ID_Rd2_toRegIDEX [31:0] $end
$var wire 32 N ID_Rd1_toRegIDEX [31:0] $end
$var wire 1 O ID_MemtoReg_toRegIDEX $end
$var wire 1 P ID_MemWrite_toRegIDEX $end
$var wire 1 Q ID_MemRead_toRegIDEX $end
$var wire 32 R ID_ImmGen_toRegIDEX [31:0] $end
$var wire 1 S ID_Branching $end
$var wire 1 T ID_ALUSrc_toRegIDEX $end
$var wire 2 U ID_ALUOp_toRegIDEX [1:0] $end
$var wire 1 V EX_last_flush $end
$var wire 32 W EX_TargetPC [31:0] $end
$var wire 5 X EX_Rs2_to_forwardUnit [4:0] $end
$var wire 5 Y EX_Rs1_to_forwardUnit [4:0] $end
$var wire 1 Z EX_RegWrite_toRegEXMEM $end
$var wire 5 [ EX_RegDest [4:0] $end
$var wire 32 \ EX_Rd2_MUX_to_MUX [31:0] $end
$var wire 32 ] EX_Rd2 [31:0] $end
$var wire 32 ^ EX_Rd1 [31:0] $end
$var wire 1 _ EX_MemtoReg_toRegEXMEM $end
$var wire 1 ` EX_MemWrite_toRegEXMEM $end
$var wire 1 a EX_MemRead_toRegEXMEM $end
$var wire 32 b EX_MUXtoALU [31:0] $end
$var wire 32 c EX_MUX_to_Rd1 [31:0] $end
$var wire 32 d EX_Imm [31:0] $end
$var wire 1 e EX_Branching $end
$var wire 10 f EX_ALUfunct [9:0] $end
$var wire 32 g EX_ALU_toRegEXMEM [31:0] $end
$var wire 1 h EX_ALUSrc $end
$var wire 2 i EX_ALUOp [1:0] $end
$var wire 3 j EX_ALUCtrl_o [2:0] $end
$scope module ALU $end
$var wire 32 k data_o [31:0] $end
$var wire 32 l data2_i [31:0] $end
$var wire 32 m data1_i [31:0] $end
$var wire 1 n Zero_o $end
$var wire 3 o ALUCtrl_i [2:0] $end
$var reg 32 p data [31:0] $end
$upscope $end
$scope module ALUCtrl $end
$var wire 3 q ALUCtrl_o [2:0] $end
$var wire 10 r funct_i [9:0] $end
$var wire 2 s ALUOp_i [1:0] $end
$var reg 3 t ALUCtrl [2:0] $end
$upscope $end
$scope module Control $end
$var wire 2 u ALUOp_o [1:0] $end
$var wire 1 T ALUSrc_o $end
$var wire 1 Q MemRead_o $end
$var wire 1 P MemWrite_o $end
$var wire 1 O MemtoReg_o $end
$var wire 7 v Op_i [6:0] $end
$var wire 1 0 RegWrite_o $end
$var wire 1 > NoOp_i $end
$var wire 1 S Branch_o $end
$var reg 2 w ALUOp [1:0] $end
$var reg 1 x ALUSrc $end
$var reg 1 S Branching $end
$var reg 1 y MemRead $end
$var reg 1 z MemWrite $end
$var reg 1 { MemtoReg $end
$var reg 1 | RegWrite $end
$upscope $end
$scope module Data_Memory $end
$var wire 1 } MemWrite_i $end
$var wire 1 ) clk_i $end
$var wire 32 ~ data_o [31:0] $end
$var wire 32 !" data_i [31:0] $end
$var wire 32 "" addr_i [31:0] $end
$var wire 1 E MemRead_i $end
$upscope $end
$scope module EX_Rd1_to_ALU $end
$var wire 32 #" data11_i [31:0] $end
$var wire 32 $" data_o [31:0] $end
$var wire 2 %" select_i [1:0] $end
$var wire 32 &" data10_i [31:0] $end
$var wire 32 '" data01_i [31:0] $end
$var wire 32 (" data00_i [31:0] $end
$var reg 32 )" data [31:0] $end
$upscope $end
$scope module EX_Rd2_to_ALU $end
$var wire 32 *" data11_i [31:0] $end
$var wire 32 +" data_o [31:0] $end
$var wire 2 ," select_i [1:0] $end
$var wire 32 -" data10_i [31:0] $end
$var wire 32 ." data01_i [31:0] $end
$var wire 32 /" data00_i [31:0] $end
$var reg 32 0" data [31:0] $end
$upscope $end
$scope module Hazard_Detection $end
$var wire 5 1" ID_Rs1_i [4:0] $end
$var wire 5 2" ID_Rs2_i [4:0] $end
$var wire 1 > NoOp_o $end
$var wire 1 = PCWrite_o $end
$var wire 1 2 Stall_o $end
$var wire 5 3" EX_RegDest_i [4:0] $end
$var wire 1 a EX_MemRead_i $end
$var reg 1 4" NoOp $end
$var reg 1 5" PCWrite $end
$var reg 1 6" stall $end
$upscope $end
$scope module ID_EX $end
$var wire 10 7" ALUCtrl_i [9:0] $end
$var wire 10 8" ALUCtrl_o [9:0] $end
$var wire 2 9" ALUOp_i [1:0] $end
$var wire 2 :" ALUOp_o [1:0] $end
$var wire 1 T ALUSrc_i $end
$var wire 1 h ALUSrc_o $end
$var wire 1 S Branch_i $end
$var wire 32 ;" Imm_o [31:0] $end
$var wire 1 Q MemRead_i $end
$var wire 1 a MemRead_o $end
$var wire 1 P MemWrite_i $end
$var wire 1 ` MemWrite_o $end
$var wire 1 O MemtoReg_i $end
$var wire 1 _ MemtoReg_o $end
$var wire 32 <" Rd1_o [31:0] $end
$var wire 32 =" Rd2_o [31:0] $end
$var wire 5 >" RegDest_i [4:0] $end
$var wire 5 ?" RegDest_o [4:0] $end
$var wire 1 0 RegWrite_i $end
$var wire 1 Z RegWrite_o $end
$var wire 5 @" Rs1_i [4:0] $end
$var wire 5 A" Rs1_o [4:0] $end
$var wire 5 B" Rs2_i [4:0] $end
$var wire 5 C" Rs2_o [4:0] $end
$var wire 1 ) clk $end
$var wire 1 / flush $end
$var wire 1 D" last_flush_i $end
$var wire 1 V last_flush_o $end
$var wire 32 E" target_PC_i [31:0] $end
$var wire 32 F" target_PC_o [31:0] $end
$var wire 32 G" Rd2_i [31:0] $end
$var wire 32 H" Rd1_i [31:0] $end
$var wire 32 I" Imm_i [31:0] $end
$var wire 1 e Branch_o $end
$var reg 10 J" ALUCtrl [9:0] $end
$var reg 2 K" ALUOp [1:0] $end
$var reg 1 h ALUSrc $end
$var reg 1 e Branching $end
$var reg 32 L" Imm [31:0] $end
$var reg 1 M" MemRead $end
$var reg 1 N" MemWrite $end
$var reg 1 O" MemtoReg $end
$var reg 32 P" Rd1 [31:0] $end
$var reg 32 Q" Rd2 [31:0] $end
$var reg 5 R" RegDest [4:0] $end
$var reg 1 S" RegWrite $end
$var reg 5 T" Rs1 [4:0] $end
$var reg 5 U" Rs2 [4:0] $end
$var reg 1 V last_flush $end
$var reg 1 V" target_PC $end
$upscope $end
$scope module IF_ID $end
$var wire 1 ) clk $end
$var wire 1 W" flush $end
$var wire 32 X" instr_o [31:0] $end
$var wire 32 Y" pc_o [31:0] $end
$var wire 1 2 stall $end
$var wire 32 Z" pc_i [31:0] $end
$var wire 32 [" instr_i [31:0] $end
$var reg 32 \" instr [31:0] $end
$var reg 32 ]" pc [31:0] $end
$upscope $end
$scope module ImmGen $end
$var wire 32 ^" data_i [31:0] $end
$var wire 32 _" data_o [31:0] $end
$var reg 32 `" data [31:0] $end
$upscope $end
$scope module Instruction_Memory $end
$var wire 32 a" instr_o [31:0] $end
$var wire 32 b" addr_i [31:0] $end
$upscope $end
$scope module MUXtoALU $end
$var wire 32 c" data1_i [31:0] $end
$var wire 32 d" data2_i [31:0] $end
$var wire 1 h select_i $end
$var wire 32 e" data_o [31:0] $end
$upscope $end
$scope module MUXtoReg $end
$var wire 1 9 select_i $end
$var wire 32 f" data_o [31:0] $end
$var wire 32 g" data2_i [31:0] $end
$var wire 32 h" data1_i [31:0] $end
$upscope $end
$scope module PC $end
$var wire 1 = PCWrite_i $end
$var wire 1 ) clk_i $end
$var wire 1 * rst_i $end
$var wire 32 i" pc_i [31:0] $end
$var reg 32 j" pc_o [31:0] $end
$upscope $end
$scope module PC_Adder $end
$var wire 32 k" data1_in [31:0] $end
$var wire 32 l" data2_in [31:0] $end
$var wire 32 m" data_o [31:0] $end
$upscope $end
$scope module PC_EX_Branching $end
$var wire 32 n" data2_i [31:0] $end
$var wire 1 e select_i $end
$var wire 32 o" data_o [31:0] $end
$var wire 32 p" data1_i [31:0] $end
$upscope $end
$scope module PC_ID_Branching $end
$var wire 32 q" data1_i [31:0] $end
$var wire 32 r" data2_i [31:0] $end
$var wire 1 s" select_i $end
$var wire 32 t" data_o [31:0] $end
$upscope $end
$scope module RegEXMEM $end
$var wire 32 u" ALUResult_i [31:0] $end
$var wire 32 v" ALUResult_o [31:0] $end
$var wire 1 a MemRead_i $end
$var wire 1 E MemRead_o $end
$var wire 32 w" MemWrData_i [31:0] $end
$var wire 32 x" MemWrData_o [31:0] $end
$var wire 1 ` MemWrite_i $end
$var wire 1 C MemWrite_o $end
$var wire 1 _ MemtoReg_i $end
$var wire 1 A MemtoReg_o $end
$var wire 5 y" RegDest_i [4:0] $end
$var wire 5 z" RegDest_o [4:0] $end
$var wire 1 Z RegWrite_i $end
$var wire 1 ? RegWrite_o $end
$var wire 1 ) clk $end
$var reg 32 {" ALUResult [31:0] $end
$var reg 1 E MemRead $end
$var reg 32 |" MemWrData [31:0] $end
$var reg 1 C MemWrite $end
$var reg 1 }" MemtoReg $end
$var reg 5 ~" RegDest [4:0] $end
$var reg 1 !# RegWrite $end
$upscope $end
$scope module RegMEMWB $end
$var wire 32 "# ALUResult_i [31:0] $end
$var wire 32 ## ALUResult_o [31:0] $end
$var wire 32 $# MemData_i [31:0] $end
$var wire 32 %# MemData_o [31:0] $end
$var wire 1 A MemtoReg_i $end
$var wire 1 9 MemtoReg_o $end
$var wire 5 &# RegDest_i [4:0] $end
$var wire 5 '# RegDest_o [4:0] $end
$var wire 1 ? RegWrite_i $end
$var wire 1 7 RegWrite_o $end
$var wire 1 ) clk $end
$var reg 32 (# ALUResult [31:0] $end
$var reg 32 )# MemData [31:0] $end
$var reg 1 9 MemtoReg $end
$var reg 5 *# RegDest [4:0] $end
$var reg 1 7 RegWrite $end
$upscope $end
$scope module Registers $end
$var wire 5 +# RDaddr_i [4:0] $end
$var wire 32 ,# RDdata_i [31:0] $end
$var wire 5 -# RS1addr_i [4:0] $end
$var wire 5 .# RS2addr_i [4:0] $end
$var wire 1 /# RegWrite_i $end
$var wire 1 ) clk_i $end
$var wire 32 0# RS2data_o [31:0] $end
$var wire 32 1# RS1data_o [31:0] $end
$upscope $end
$scope module branch_predictor $end
$var wire 1 ) clk_i $end
$var wire 1 3 predict_o $end
$var wire 1 2# result_i $end
$var wire 1 * rst_i $end
$var wire 1 S update_i $end
$var wire 2 3# state_w [1:0] $end
$var reg 1 4# last_instr_beq $end
$var reg 2 5# state_r [1:0] $end
$scope function next_state $end
$var reg 1 6# last_is_beq $end
$var reg 3 7# next_state [2:0] $end
$var reg 1 8# result $end
$var reg 2 9# this_state [1:0] $end
$upscope $end
$upscope $end
$scope module forwarding_unit $end
$var wire 5 :# EX_Rs1_i [4:0] $end
$var wire 5 ;# EX_Rs2_i [4:0] $end
$var wire 5 <# MEM_Rd_i [4:0] $end
$var wire 1 ? MEM_RegWrite_i $end
$var wire 5 =# WB_RegDest_i [4:0] $end
$var wire 1 7 WB_RegWrite_i $end
$var wire 2 ># forwardA_o [1:0] $end
$var wire 2 ?# forwardB_o [1:0] $end
$var reg 2 @# forwardA [1:0] $end
$var reg 2 A# forwardB [1:0] $end
$upscope $end
$upscope $end
$upscope $end
$enddefinitions $end
#0
$dumpvars
b0 A#
b0 @#
b0 ?#
b0 >#
bx =#
bx <#
b0 ;#
b0 :#
bz 9#
18#
b0zz 7#
x6#
bz 5#
x4#
bz 3#
12#
b0 1#
b0 0#
0/#
b0 .#
b0 -#
bx ,#
bx +#
bx *#
bx )#
bx (#
bx '#
bx &#
bx %#
bx $#
bx ##
bx "#
x!#
bx ~"
x}"
bx |"
bx {"
bx z"
b0 y"
bx x"
b0 w"
bx v"
b0 u"
bx t"
0s"
bx r"
bx q"
bx p"
bx o"
b0 n"
bx m"
b100 l"
bx k"
bx j"
bx i"
bx h"
bx g"
bx f"
b0 e"
b0 d"
b0 c"
bx b"
bx a"
b0 `"
b0 _"
b0 ^"
bx ]"
b0 \"
bx ["
bx Z"
bx Y"
b0 X"
0W"
0V"
b0 U"
b0 T"
0S"
b0 R"
b0 Q"
b0 P"
0O"
0N"
0M"
b0 L"
b0 K"
b0 J"
b0 I"
b0 H"
b0 G"
b0 F"
bx E"
xD"
b0 C"
b0 B"
b0 A"
b0 @"
b0 ?"
b0 >"
b0 ="
b0 <"
b0 ;"
b0 :"
b0 9"
b0 8"
b0 7"
06"
15"
04"
b0 3"
b0 2"
b0 1"
b0 0"
b0 /"
bx ."
bx -"
b0 ,"
b0 +"
bz *"
b0 )"
b0 ("
bx '"
bx &"
b0 %"
b0 $"
bz #"
bx ""
bx !"
bx ~
0}
0|
0{
0z
0y
0x
b0 w
b0 v
b0 u
b0 t
b0 s
b0 r
b0 q
b0 p
b0 o
1n
b0 m
b0 l
b0 k
b0 j
b0 i
0h
b0 g
b0 f
0e
b0 d
b0 c
b0 b
0a
0`
0_
b0 ^
b0 ]
b0 \
b0 [
0Z
b0 Y
b0 X
b0 W
0V
b0 U
0T
0S
b0 R
0Q
0P
0O
b0 N
b0 M
b0 L
bx K
bx J
bx I
bx H
bx G
bx F
xE
bx D
xC
bx B
xA
bx @
x?
0>
1=
bx <
bx ;
bx :
x9
bx 8
x7
bx 6
b0 5
b0 4
x3
02
z1
00
0/
z.
b11 -
b100000 ,
b0 +
0*
1)
bx (
bx '
z&
z%
bz $
z#
z"
bz !
$end
#12
b100 H
b100 i"
b100 o"
b0 3#
b100 <
b100 p"
b100 t"
b110000010011 J
b110000010011 ["
b110000010011 a"
13
b0 7#
b0 9#
06#
b100 I
b100 m"
b100 q"
b0 G
b0 Z"
b0 b"
b0 j"
b0 k"
04#
b0 5#
1*
#24
0*
#25
0)
#50
1T
1x
10
1|
b1 U
b1 u
b1 9"
b1 w
b1000 H
b1000 i"
b1000 o"
b0 D
b0 ~
b0 $#
b11000 >"
b10011 v
b1000 <
b1000 p"
b1000 t"
b10000000000110100010011 J
b10000000000110100010011 ["
b10000000000110100010011 a"
b0 @
b0 z"
b0 &#
b0 <#
b0 ~"
b0 B
b0 !"
b0 x"
b0 |"
b0 F
b0 ""
b0 &"
b0 -"
b0 v"
b0 {"
b0 "#
0C
0E
0A
0}"
0?
0!#
b0x W
b0x F"
b0x n"
xV"
xV
b0 E"
b0 r"
b0 K
b0 Y"
b0 ]"
b110000010011 L
b110000010011 X"
b110000010011 \"
b110000010011 ^"
b1000 I
b1000 m"
b1000 q"
b100 G
b100 Z"
b100 b"
b100 j"
b100 k"
b1 +
1)
#75
0)
#100
b1100 H
b1100 i"
b1100 o"
b100 R
b100 I"
b100 _"
b100 `"
b100 B"
b11010 >"
b100 .#
b100 2"
b0 6
b0 '"
b0 ."
b0 f"
b0 ,#
b1100 <
b1100 p"
b1100 t"
b10000000000111000010011 J
b10000000000111000010011 ["
b10000000000111000010011 a"
b1100 E"
b1100 r"
b100 K
b100 Y"
b100 ]"
b10000000000110100010011 L
b10000000000110100010011 X"
b10000000000110100010011 \"
b10000000000110100010011 ^"
b0 W
b0 F"
b0 n"
0V"
b11000 [
b11000 3"
b11000 ?"
b11000 y"
b11000 R"
1h
b1 i
b1 s
b1 :"
b1 K"
1Z
1S"
b0 8
b0 '#
b0 *#
b0 +#
b0 =#
b0 :
b0 g"
b0 %#
b0 )#
b0 ;
b0 h"
b0 ##
b0 (#
09
07
b1100 I
b1100 m"
b1100 q"
b1000 G
b1000 Z"
b1000 b"
b1000 j"
b1000 k"
b10 +
1)
#125
0)
#150
0n
08#
02#
b100 g
b100 k
b100 p
b100 u"
b10000 H
b10000 i"
b10000 o"
b100 b
b100 l
b100 e"
b11100 >"
b10000 <
b10000 p"
b10000 t"
b11111111111100000000011110010011 J
b11111111111100000000011110010011 ["
b11111111111100000000011110010011 a"
b11000 @
b11000 z"
b11000 &#
b11000 <#
b11000 ~"
1?
1!#
b100 X
b100 C"
b100 ;#
b100 U"
b11010 [
b11010 3"
b11010 ?"
b11010 y"
b11010 R"
b100 d
b100 ;"
b100 L"
b100 d"
b10000 E"
b10000 r"
b1000 K
b1000 Y"
b1000 ]"
b10000000000111000010011 L
b10000000000111000010011 X"
b10000000000111000010011 \"
b10000000000111000010011 ^"
b10000 I
b10000 m"
b10000 q"
b1100 G
b1100 Z"
b1100 b"
b1100 j"
b1100 k"
b11 +
1)
#175
0)
#200
b111110 M
b111110 G"
b111110 0#
b10100 H
b10100 i"
b10100 o"
b11111111111111111111111111111111 R
b11111111111111111111111111111111 I"
b11111111111111111111111111111111 _"
b11111111111111111111111111111111 `"
b11111 B"
b1111 >"
b1111111000 7"
b11111 .#
b11111 2"
1/#
b10100 <
b10100 p"
b10100 t"
b11110011010000110010110011 J
b11110011010000110010110011 ["
b11110011010000110010110011 a"
b1010 E"
b1010 r"
b1100 K
b1100 Y"
b1100 ]"
b11111111111100000000011110010011 L
b11111111111100000000011110010011 X"
b11111111111100000000011110010011 \"
b11111111111100000000011110010011 ^"
b11100 [
b11100 3"
b11100 ?"
b11100 y"
b11100 R"
b11010 @
b11010 z"
b11010 &#
b11010 <#
b11010 ~"
b100 F
b100 ""
b100 &"
b100 -"
b100 v"
b100 {"
b100 "#
b11000 8
b11000 '#
b11000 *#
b11000 +#
b11000 =#
17
b10100 I
b10100 m"
b10100 q"
b10000 G
b10000 Z"
b10000 b"
b10000 j"
b10000 k"
b100 +
1)
#225
0)
#250
b11111111111111111111111111111111 g
b11111111111111111111111111111111 k
b11111111111111111111111111111111 p
b11111111111111111111111111111111 u"
b111000 M
b111000 G"
b111000 0#
b100 N
b100 H"
b100 1#
0T
0x
b0 U
b0 u
b0 9"
b0 w
b11000 H
b11000 i"
b11000 o"
b100 6
b100 '"
b100 ."
b100 f"
b100 ,#
b11111111111111111111111111111111 b
b11111111111111111111111111111111 l
b11111111111111111111111111111111 e"
b111110 \
b111110 +"
b111110 0"
b111110 c"
b111110 w"
b0 R
b0 I"
b0 _"
b0 `"
b11100 B"
b11010 @"
b11001 >"
b1000 7"
b11100 .#
b11010 -#
b110011 v
b11100 2"
b11010 1"
b11000 <
b11000 p"
b11000 t"
b11111111111111010000110100010011 J
b11111111111111010000110100010011 ["
b11111111111111010000110100010011 a"
b11010 8
b11010 '#
b11010 *#
b11010 +#
b11010 =#
b100 ;
b100 h"
b100 ##
b100 (#
b11100 @
b11100 z"
b11100 &#
b11100 <#
b11100 ~"
b11111 X
b11111 C"
b11111 ;#
b11111 U"
b1111 [
b1111 3"
b1111 ?"
b1111 y"
b1111 R"
b1111111000 f
b1111111000 r
b1111111000 8"
b1111111000 J"
b11111111111111111111111111111111 d
b11111111111111111111111111111111 ;"
b11111111111111111111111111111111 L"
b11111111111111111111111111111111 d"
b111110 ]
b111110 /"
b111110 ="
b111110 Q"
b10000 E"
b10000 r"
b10000 K
b10000 Y"
b10000 ]"
b11110011010000110010110011 L
b11110011010000110010110011 X"
b11110011010000110010110011 \"
b11110011010000110010110011 ^"
b11000 I
b11000 m"
b11000 q"
b10100 G
b10100 Z"
b10100 b"
b10100 j"
b10100 k"
b101 +
1)
#275
0)
#300
1n
1T
1x
b1 U
b1 u
b1 9"
b1 w
b10000 g
b10000 k
b10000 p
b10000 u"
b111110 M
b111110 G"
b111110 0#
b11100 H
b11100 i"
b11100 o"
b11111111111111111111111111111111 R
b11111111111111111111111111111111 I"
b11111111111111111111111111111111 _"
b11111111111111111111111111111111 `"
b11111 B"
b11010 >"
b1111111000 7"
b11111 .#
b10011 v
b11111 2"
b100 b
b100 l
b100 e"
b100 j
b100 o
b100 q
b100 t
b100 c
b100 m
b100 $"
b100 )"
b100 \
b100 +"
b100 0"
b100 c"
b100 w"
b1 4
b1 ,"
b1 ?#
b1 A#
b11100 <
b11100 p"
b11100 t"
b11001010110110000011 J
b11001010110110000011 ["
b11001010110110000011 a"
b10010 E"
b10010 r"
b10100 K
b10100 Y"
b10100 ]"
b11111111111111010000110100010011 L
b11111111111111010000110100010011 X"
b11111111111111010000110100010011 \"
b11111111111111010000110100010011 ^"
b11100 X
b11100 C"
b11100 ;#
b11100 U"
b11010 Y
b11010 A"
b11010 :#
b11010 T"
b11001 [
b11001 3"
b11001 ?"
b11001 y"
b11001 R"
b1000 f
b1000 r
b1000 8"
b1000 J"
b0 d
b0 ;"
b0 L"
b0 d"
b111000 ]
b111000 /"
b111000 ="
b111000 Q"
b100 ^
b100 ("
b100 <"
b100 P"
0h
b0 i
b0 s
b0 :"
b0 K"
b1111 @
b1111 z"
b1111 &#
b1111 <#
b1111 ~"
b111110 B
b111110 !"
b111110 x"
b111110 |"
b11111111111111111111111111111111 F
b11111111111111111111111111111111 ""
b11111111111111111111111111111111 &"
b11111111111111111111111111111111 -"
b11111111111111111111111111111111 v"
b11111111111111111111111111111111 {"
b11111111111111111111111111111111 "#
b11100 8
b11100 '#
b11100 *#
b11100 +#
b11100 =#
b11100 I
b11100 m"
b11100 q"
b11000 G
b11000 Z"
b11000 b"
b11000 j"
b11000 k"
b110 +
1)
#325
0)
#350
0n
b111110 \
b111110 +"
b111110 0"
b111110 c"
b111110 w"
b11 g
b11 k
b11 p
b11 u"
b0 M
b0 G"
b0 0#
b11111111111111111111111111100111 N
b11111111111111111111111111100111 H"
b11111111111111111111111111100111 1#
1O
1{
1Q
1y
b100000 H
b100000 i"
b100000 o"
b11111111111111111111111111111111 6
b11111111111111111111111111111111 '"
b11111111111111111111111111111111 ."
b11111111111111111111111111111111 f"
b11111111111111111111111111111111 ,#
b0 4
b0 ,"
b0 ?#
b0 A#
b11111111111111111111111111111111 b
b11111111111111111111111111111111 l
b11111111111111111111111111111111 e"
b0 j
b0 o
b0 q
b0 t
b0 R
b0 I"
b0 _"
b0 `"
b0 B"
b11001 @"
b11011 >"
b10 7"
b0 .#
b11001 -#
b11 v
b0 2"
b11001 1"
b100000 <
b100000 p"
b100000 t"
b1101111000000110000110011 J
b1101111000000110000110011 ["
b1101111000000110000110011 a"
b1111 8
b1111 '#
b1111 *#
b1111 +#
b1111 =#
b11111111111111111111111111111111 ;
b11111111111111111111111111111111 h"
b11111111111111111111111111111111 ##
b11111111111111111111111111111111 (#
b11001 @
b11001 z"
b11001 &#
b11001 <#
b11001 ~"
b100 B
b100 !"
b100 x"
b100 |"
b10000 F
b10000 ""
b10000 &"
b10000 -"
b10000 v"
b10000 {"
b10000 "#
b11111 X
b11111 C"
b11111 ;#
b11111 U"
b11010 [
b11010 3"
b11010 ?"
b11010 y"
b11010 R"
b1111111000 f
b1111111000 r
b1111111000 8"
b1111111000 J"
b11111111111111111111111111111111 d
b11111111111111111111111111111111 ;"
b11111111111111111111111111111111 L"
b11111111111111111111111111111111 d"
b111110 ]
b111110 /"
b111110 ="
b111110 Q"
1h
b1 i
b1 s
b1 :"
b1 K"
b11000 E"
b11000 r"
b11000 K
b11000 Y"
b11000 ]"
b11001010110110000011 L
b11001010110110000011 X"
b11001010110110000011 \"
b11001010110110000011 ^"
b100000 I
b100000 m"
b100000 q"
b11100 G
b11100 Z"
b11100 b"
b11100 j"
b11100 k"
b111 +
1)
#375
0)
#400
b11111111111111111111111111100101 M
b11111111111111111111111111100101 G"
b11111111111111111111111111100101 0#
0O
0{
0Q
0y
0T
0x
00
0|
b0 U
b0 u
b0 9"
b0 w
0=
05"
12
16"
1>
14"
b10000 g
b10000 k
b10000 p
b10000 u"
b0 N
b0 H"
b0 1#
b100100 H
b100100 i"
b100100 o"
b11011 B"
b11000 @"
b11000 >"
b0 7"
b11011 .#
b11000 -#
b110011 v
b11011 2"
b11000 1"
b0 b
b0 l
b0 e"
b10000 c
b10000 m
b10000 $"
b10000 )"
b0 \
b0 +"
b0 0"
b0 c"
b0 w"
b1 5
b1 %"
b1 >#
b1 @#
b10000 6
b10000 '"
b10000 ."
b10000 f"
b10000 ,#
b100100 <
b100100 p"
b100100 t"
b111111010000010001100011 J
b111111010000010001100011 ["
b111111010000010001100011 a"
b11100 E"
b11100 r"
b11100 K
b11100 Y"
b11100 ]"
b1101111000000110000110011 L
b1101111000000110000110011 X"
b1101111000000110000110011 \"
b1101111000000110000110011 ^"
b0 X
b0 C"
b0 ;#
b0 U"
b11001 Y
b11001 A"
b11001 :#
b11001 T"
b11011 [
b11011 3"
b11011 ?"
b11011 y"
b11011 R"
b10 f
b10 r
b10 8"
b10 J"
b0 d
b0 ;"
b0 L"
b0 d"
b0 ]
b0 /"
b0 ="
b0 Q"
b11111111111111111111111111100111 ^
b11111111111111111111111111100111 ("
b11111111111111111111111111100111 <"
b11111111111111111111111111100111 P"
1a
1M"
1_
1O"
b11010 @
b11010 z"
b11010 &#
b11010 <#
b11010 ~"
b111110 B
b111110 !"
b111110 x"
b111110 |"
b11 F
b11 ""
b11 &"
b11 -"
b11 v"
b11 {"
b11 "#
b11001 8
b11001 '#
b11001 *#
b11001 +#
b11001 =#
b10000 ;
b10000 h"
b10000 ##
b10000 (#
b100100 I
b100100 m"
b100100 q"
b100000 G
b100000 Z"
b100000 b"
b100000 j"
b100000 k"
b1000 +
1)
#425
0)
#450
b10000 g
b10000 k
b10000 p
b10000 u"
b0 c
b0 m
b0 $"
b0 )"
b10000 b
b10000 l
b10000 e"
10
1|
b11 6
b11 '"
b11 ."
b11 f"
b11 ,#
b11101 D
b11101 ~
b11101 $#
b10 4
b10 ,"
b10 ?#
b10 A#
b0 5
b0 %"
b0 >#
b0 @#
b10000 \
b10000 +"
b10000 0"
b10000 c"
b10000 w"
1=
15"
02
06"
0>
04"
b11010 8
b11010 '#
b11010 *#
b11010 +#
b11010 =#
b11 ;
b11 h"
b11 ##
b11 (#
b11011 @
b11011 z"
b11011 &#
b11011 <#
b11011 ~"
b0 B
b0 !"
b0 x"
b0 |"
b10000 F
b10000 ""
b10000 &"
b10000 -"
b10000 v"
b10000 {"
b10000 "#
1E
1A
1}"
b11011 X
b11011 C"
b11011 ;#
b11011 U"
b11000 Y
b11000 A"
b11000 :#
b11000 T"
b11000 [
b11000 3"
b11000 ?"
b11000 y"
b11000 R"
b0 f
b0 r
b0 8"
b0 J"
b11111111111111111111111111100101 ]
b11111111111111111111111111100101 /"
b11111111111111111111111111100101 ="
b11111111111111111111111111100101 Q"
b0 ^
b0 ("
b0 <"
b0 P"
0h
b0 i
b0 s
b0 :"
b0 K"
0a
0M"
0_
0O"
0Z
0S"
b1001 +
1)
#475
0)
#500
1W"
b11101 g
b11101 k
b11101 p
b11101 u"
1s"
b11101 b
b11101 l
b11101 e"
b11 N
b11 H"
b11 1#
1S
1T
1x
00
0|
b10 U
b10 u
b10 9"
b10 w
b11111111111111111111111111111111 M
b11111111111111111111111111111111 G"
b11111111111111111111111111111111 0#
b11101 \
b11101 +"
b11101 0"
b11101 c"
b11101 w"
b101000 H
b101000 i"
b101000 o"
b100 R
b100 I"
b100 _"
b100 `"
b1111 B"
b11010 @"
b1000 >"
b1111 .#
b11010 -#
b1100011 v
b1111 2"
b11010 1"
b0 D
b0 ~
b0 $#
b1 4
b1 ,"
b1 ?#
b1 A#
b11101 6
b11101 '"
b11101 ."
b11101 f"
b11101 ,#
b101000 <
b101000 p"
b101000 t"
b11111110000000000000011011100011 J
b11111110000000000000011011100011 ["
b11111110000000000000011011100011 a"
b101000 E"
b101000 r"
b100000 K
b100000 Y"
b100000 ]"
b111111010000010001100011 L
b111111010000010001100011 X"
b111111010000010001100011 \"
b111111010000010001100011 ^"
1Z
1S"
b11000 @
b11000 z"
b11000 &#
b11000 <#
b11000 ~"
b10000 B
b10000 !"
b10000 x"
b10000 |"
0E
0A
0}"
0?
0!#
b11011 8
b11011 '#
b11011 *#
b11011 +#
b11011 =#
b11101 :
b11101 g"
b11101 %#
b11101 )#
b10000 ;
b10000 h"
b10000 ##
b10000 (#
19
b101000 I
b101000 m"
b101000 q"
b100100 G
b100100 Z"
b100100 b"
b100100 j"
b100100 k"
b1010 +
1)
#525
0)
